<?xml version="1.0" encoding="utf-8"?>
<!DOCTYPE eagle SYSTEM "eagle.dtd">
<eagle version="7.6.0">
<drawing>
<settings>
<setting alwaysvectorfont="no"/>
<setting verticaltext="up"/>
</settings>
<grid distance="0.05" unitdist="inch" unit="inch" style="lines" multiple="1" display="yes" altdistance="0.025" altunitdist="inch" altunit="inch"/>
<layers>
<layer number="1" name="Top" color="4" fill="1" visible="yes" active="yes"/>
<layer number="2" name="Route2" color="1" fill="3" visible="yes" active="yes"/>
<layer number="3" name="Route3" color="4" fill="3" visible="yes" active="yes"/>
<layer number="4" name="Route4" color="1" fill="4" visible="yes" active="yes"/>
<layer number="5" name="Route5" color="4" fill="4" visible="yes" active="yes"/>
<layer number="6" name="Route6" color="1" fill="8" visible="yes" active="yes"/>
<layer number="7" name="Route7" color="4" fill="8" visible="yes" active="yes"/>
<layer number="8" name="Route8" color="1" fill="2" visible="yes" active="yes"/>
<layer number="9" name="Route9" color="4" fill="2" visible="yes" active="yes"/>
<layer number="10" name="Route10" color="1" fill="7" visible="yes" active="yes"/>
<layer number="11" name="Route11" color="4" fill="7" visible="yes" active="yes"/>
<layer number="12" name="Route12" color="1" fill="5" visible="yes" active="yes"/>
<layer number="13" name="Route13" color="4" fill="5" visible="yes" active="yes"/>
<layer number="14" name="Route14" color="1" fill="6" visible="yes" active="yes"/>
<layer number="15" name="Route15" color="4" fill="6" visible="yes" active="yes"/>
<layer number="16" name="Bottom" color="1" fill="1" visible="yes" active="yes"/>
<layer number="17" name="Pads" color="2" fill="1" visible="yes" active="yes"/>
<layer number="18" name="Vias" color="2" fill="1" visible="yes" active="yes"/>
<layer number="19" name="Unrouted" color="6" fill="1" visible="yes" active="yes"/>
<layer number="20" name="Dimension" color="15" fill="1" visible="yes" active="yes"/>
<layer number="21" name="tPlace" color="7" fill="1" visible="yes" active="yes"/>
<layer number="22" name="bPlace" color="7" fill="1" visible="yes" active="yes"/>
<layer number="23" name="tOrigins" color="15" fill="1" visible="yes" active="yes"/>
<layer number="24" name="bOrigins" color="15" fill="1" visible="yes" active="yes"/>
<layer number="25" name="tNames" color="7" fill="1" visible="yes" active="yes"/>
<layer number="26" name="bNames" color="7" fill="1" visible="yes" active="yes"/>
<layer number="27" name="tValues" color="7" fill="1" visible="yes" active="yes"/>
<layer number="28" name="bValues" color="7" fill="1" visible="yes" active="yes"/>
<layer number="29" name="tStop" color="7" fill="3" visible="yes" active="yes"/>
<layer number="30" name="bStop" color="7" fill="6" visible="yes" active="yes"/>
<layer number="31" name="tCream" color="7" fill="4" visible="yes" active="yes"/>
<layer number="32" name="bCream" color="7" fill="5" visible="yes" active="yes"/>
<layer number="33" name="tFinish" color="6" fill="3" visible="yes" active="yes"/>
<layer number="34" name="bFinish" color="6" fill="6" visible="yes" active="yes"/>
<layer number="35" name="tGlue" color="7" fill="4" visible="yes" active="yes"/>
<layer number="36" name="bGlue" color="7" fill="5" visible="yes" active="yes"/>
<layer number="37" name="tTest" color="7" fill="1" visible="yes" active="yes"/>
<layer number="38" name="bTest" color="7" fill="1" visible="yes" active="yes"/>
<layer number="39" name="tKeepout" color="4" fill="11" visible="yes" active="yes"/>
<layer number="40" name="bKeepout" color="1" fill="11" visible="yes" active="yes"/>
<layer number="41" name="tRestrict" color="4" fill="10" visible="yes" active="yes"/>
<layer number="42" name="bRestrict" color="1" fill="10" visible="yes" active="yes"/>
<layer number="43" name="vRestrict" color="2" fill="10" visible="yes" active="yes"/>
<layer number="44" name="Drills" color="7" fill="1" visible="yes" active="yes"/>
<layer number="45" name="Holes" color="7" fill="1" visible="yes" active="yes"/>
<layer number="46" name="Milling" color="3" fill="1" visible="yes" active="yes"/>
<layer number="47" name="Measures" color="7" fill="1" visible="yes" active="yes"/>
<layer number="48" name="Document" color="7" fill="1" visible="yes" active="yes"/>
<layer number="49" name="Reference" color="7" fill="1" visible="yes" active="yes"/>
<layer number="50" name="dxf" color="7" fill="1" visible="no" active="no"/>
<layer number="51" name="tDocu" color="7" fill="1" visible="yes" active="yes"/>
<layer number="52" name="bDocu" color="7" fill="1" visible="yes" active="yes"/>
<layer number="53" name="tGND_GNDA" color="7" fill="9" visible="no" active="no"/>
<layer number="54" name="bGND_GNDA" color="1" fill="9" visible="no" active="no"/>
<layer number="56" name="wert" color="7" fill="1" visible="no" active="no"/>
<layer number="57" name="tCAD" color="7" fill="1" visible="no" active="no"/>
<layer number="58" name="bCAD" color="7" fill="1" visible="no" active="no"/>
<layer number="91" name="Nets" color="2" fill="1" visible="yes" active="yes"/>
<layer number="92" name="Busses" color="1" fill="1" visible="yes" active="yes"/>
<layer number="93" name="Pins" color="2" fill="1" visible="no" active="yes"/>
<layer number="94" name="Symbols" color="4" fill="1" visible="yes" active="yes"/>
<layer number="95" name="Names" color="7" fill="1" visible="yes" active="yes"/>
<layer number="96" name="Values" color="7" fill="1" visible="yes" active="yes"/>
<layer number="97" name="Info" color="7" fill="1" visible="yes" active="yes"/>
<layer number="98" name="Guide" color="6" fill="1" visible="yes" active="yes"/>
<layer number="100" name="Muster" color="7" fill="1" visible="yes" active="yes"/>
<layer number="101" name="Hidden" color="15" fill="1" visible="yes" active="yes"/>
<layer number="102" name="Changes" color="12" fill="1" visible="yes" active="yes"/>
<layer number="103" name="fp3" color="7" fill="1" visible="yes" active="yes"/>
<layer number="104" name="Name" color="7" fill="1" visible="yes" active="yes"/>
<layer number="105" name="Beschreib" color="9" fill="1" visible="yes" active="yes"/>
<layer number="106" name="BGA-Top" color="4" fill="1" visible="yes" active="yes"/>
<layer number="107" name="BD-Top" color="5" fill="1" visible="yes" active="yes"/>
<layer number="108" name="fp8" color="7" fill="1" visible="yes" active="yes"/>
<layer number="109" name="fp9" color="7" fill="1" visible="yes" active="yes"/>
<layer number="110" name="fp0" color="7" fill="1" visible="yes" active="yes"/>
<layer number="111" name="LPC17xx" color="7" fill="1" visible="yes" active="yes"/>
<layer number="112" name="bGTest" color="7" fill="1" visible="yes" active="yes"/>
<layer number="113" name="FRNTTEKEN" color="7" fill="1" visible="yes" active="yes"/>
<layer number="114" name="FRNTMAAT1" color="7" fill="1" visible="yes" active="yes"/>
<layer number="115" name="FRNTMAAT2" color="7" fill="1" visible="yes" active="yes"/>
<layer number="116" name="Patch_BOT" color="9" fill="4" visible="yes" active="yes"/>
<layer number="117" name="BACKMAAT1" color="7" fill="1" visible="yes" active="yes"/>
<layer number="118" name="Rect_Pads" color="7" fill="1" visible="yes" active="yes"/>
<layer number="119" name="KAP_TEKEN" color="7" fill="1" visible="yes" active="yes"/>
<layer number="120" name="KAP_MAAT1" color="7" fill="1" visible="yes" active="yes"/>
<layer number="121" name="_tsilk" color="7" fill="1" visible="yes" active="yes"/>
<layer number="122" name="_bsilk" color="7" fill="1" visible="yes" active="yes"/>
<layer number="123" name="tTestmark" color="7" fill="1" visible="yes" active="yes"/>
<layer number="124" name="bTestmark" color="7" fill="1" visible="yes" active="yes"/>
<layer number="125" name="_tNames" color="7" fill="1" visible="yes" active="yes"/>
<layer number="126" name="bText" color="7" fill="1" visible="yes" active="yes"/>
<layer number="127" name="_tValues" color="7" fill="1" visible="yes" active="yes"/>
<layer number="128" name="_bValues" color="7" fill="1" visible="yes" active="yes"/>
<layer number="130" name="SMDSTROOK" color="7" fill="1" visible="yes" active="yes"/>
<layer number="131" name="tAdjust" color="7" fill="1" visible="yes" active="yes"/>
<layer number="132" name="bAdjust" color="7" fill="1" visible="yes" active="yes"/>
<layer number="144" name="Drill_legend" color="7" fill="1" visible="yes" active="yes"/>
<layer number="151" name="HeatSink" color="7" fill="1" visible="yes" active="yes"/>
<layer number="152" name="_bDocu" color="7" fill="1" visible="yes" active="yes"/>
<layer number="171" name="Fraes_2mm" color="7" fill="1" visible="yes" active="yes"/>
<layer number="199" name="Contour" color="7" fill="1" visible="yes" active="yes"/>
<layer number="200" name="200bmp" color="1" fill="10" visible="yes" active="yes"/>
<layer number="201" name="201bmp" color="2" fill="1" visible="no" active="no"/>
<layer number="202" name="202bmp" color="3" fill="1" visible="no" active="no"/>
<layer number="203" name="203bmp" color="4" fill="10" visible="yes" active="yes"/>
<layer number="204" name="204bmp" color="5" fill="10" visible="yes" active="yes"/>
<layer number="205" name="205bmp" color="6" fill="10" visible="yes" active="yes"/>
<layer number="206" name="206bmp" color="7" fill="10" visible="yes" active="yes"/>
<layer number="207" name="207bmp" color="8" fill="10" visible="yes" active="yes"/>
<layer number="208" name="208bmp" color="9" fill="10" visible="yes" active="yes"/>
<layer number="209" name="209bmp" color="7" fill="1" visible="yes" active="yes"/>
<layer number="210" name="210bmp" color="7" fill="1" visible="yes" active="yes"/>
<layer number="211" name="211bmp" color="7" fill="1" visible="yes" active="yes"/>
<layer number="212" name="212bmp" color="7" fill="1" visible="yes" active="yes"/>
<layer number="213" name="213bmp" color="7" fill="1" visible="yes" active="yes"/>
<layer number="214" name="214bmp" color="7" fill="1" visible="yes" active="yes"/>
<layer number="215" name="215bmp" color="7" fill="1" visible="yes" active="yes"/>
<layer number="216" name="216bmp" color="7" fill="1" visible="yes" active="yes"/>
<layer number="217" name="217bmp" color="18" fill="1" visible="no" active="no"/>
<layer number="218" name="218bmp" color="19" fill="1" visible="no" active="no"/>
<layer number="219" name="219bmp" color="20" fill="1" visible="no" active="no"/>
<layer number="220" name="220bmp" color="21" fill="1" visible="no" active="no"/>
<layer number="221" name="221bmp" color="22" fill="1" visible="no" active="no"/>
<layer number="222" name="222bmp" color="23" fill="1" visible="no" active="no"/>
<layer number="223" name="223bmp" color="24" fill="1" visible="no" active="no"/>
<layer number="224" name="224bmp" color="25" fill="1" visible="no" active="no"/>
<layer number="230" name="230bmp" color="7" fill="1" visible="yes" active="yes"/>
<layer number="231" name="Eagle3D_PG1" color="7" fill="1" visible="yes" active="yes"/>
<layer number="232" name="Eagle3D_PG2" color="7" fill="1" visible="yes" active="yes"/>
<layer number="233" name="Eagle3D_PG3" color="7" fill="1" visible="yes" active="yes"/>
<layer number="248" name="Housing" color="7" fill="1" visible="yes" active="yes"/>
<layer number="249" name="Edge" color="7" fill="1" visible="yes" active="yes"/>
<layer number="250" name="Descript" color="3" fill="1" visible="no" active="no"/>
<layer number="251" name="SMDround" color="12" fill="11" visible="no" active="no"/>
<layer number="254" name="cooling" color="7" fill="1" visible="yes" active="yes"/>
<layer number="255" name="xfer" color="7" fill="1" visible="yes" active="yes"/>
</layers>
<library>
<packages>
<package name="C_POL_SMD_10UF/16V">
<wire x1="-2.05" y1="2.05" x2="1.25" y2="2.05" width="0.2032" layer="21"/>
<wire x1="1.25" y1="2.05" x2="2.05" y2="1.25" width="0.2032" layer="21"/>
<wire x1="2.05" y1="1.25" x2="2.05" y2="-1.25" width="0.2032" layer="51"/>
<wire x1="2.05" y1="-1.25" x2="1.25" y2="-2.05" width="0.2032" layer="21"/>
<wire x1="1.25" y1="-2.05" x2="-2.05" y2="-2.05" width="0.2032" layer="21"/>
<wire x1="-2.05" y1="-2.05" x2="-2.05" y2="2.05" width="0.2032" layer="51"/>
<circle x="0" y="0" radius="1.85" width="0.2032" layer="51"/>
<smd name="-" x="-1.8" y="0" dx="2.6" dy="1.6" layer="1"/>
<smd name="+" x="1.8" y="0" dx="2.6" dy="1.6" layer="1"/>
<text x="-1.905" y="2.54" size="1.27" layer="25">&gt;NAME</text>
<text x="-1.905" y="-3.81" size="1.27" layer="27">&gt;VALUE</text>
<polygon width="0.2032" layer="51">
<vertex x="-1.2" y="-1.35"/>
<vertex x="-1.2" y="1.35" curve="44.759919"/>
<vertex x="-1.8" y="0" curve="39.027281"/>
</polygon>
</package>
<package name="C_POL_SMD_10UF/25V">
<wire x1="-2.05" y1="2.05" x2="1.25" y2="2.05" width="0.2032" layer="21"/>
<wire x1="1.25" y1="2.05" x2="2.05" y2="1.25" width="0.2032" layer="21"/>
<wire x1="2.05" y1="1.25" x2="2.05" y2="-1.25" width="0.2032" layer="51"/>
<wire x1="2.05" y1="-1.25" x2="1.25" y2="-2.05" width="0.2032" layer="21"/>
<wire x1="1.25" y1="-2.05" x2="-2.05" y2="-2.05" width="0.2032" layer="21"/>
<wire x1="-2.05" y1="-2.05" x2="-2.05" y2="2.05" width="0.2032" layer="51"/>
<circle x="0" y="0" radius="1.85" width="0.2032" layer="51"/>
<smd name="-" x="-1.8" y="0" dx="2.6" dy="1.6" layer="1"/>
<smd name="+" x="1.8" y="0" dx="2.6" dy="1.6" layer="1"/>
<text x="-1.905" y="2.54" size="1.27" layer="25">&gt;NAME</text>
<text x="-1.905" y="-3.81" size="1.27" layer="27">&gt;VALUE</text>
<polygon width="0.2032" layer="51">
<vertex x="-1.2" y="-1.35"/>
<vertex x="-1.2" y="1.35" curve="44.759919"/>
<vertex x="-1.8" y="0" curve="39.027281"/>
</polygon>
</package>
<package name="C_POL_SMD_1000UF/16V">
<wire x1="4.3" y1="-5.2" x2="-5.2" y2="-5.2" width="0.2032" layer="21"/>
<wire x1="-5.2" y1="-5.2" x2="-5.2" y2="-1.5" width="0.2032" layer="21"/>
<wire x1="-5.2" y1="-1.5" x2="-5.2" y2="1.5" width="0.2032" layer="51"/>
<wire x1="-5.2" y1="1.5" x2="-5.2" y2="5.2" width="0.2032" layer="21"/>
<wire x1="-5.2" y1="5.2" x2="4.3" y2="5.2" width="0.2032" layer="21"/>
<wire x1="5.2" y1="4.3" x2="5.2" y2="1.5" width="0.2032" layer="21"/>
<wire x1="5.2" y1="1.5" x2="5.2" y2="-1.5" width="0.2032" layer="51"/>
<wire x1="5.2" y1="-1.5" x2="5.2" y2="-4.3" width="0.2032" layer="21"/>
<wire x1="5.2" y1="-4.3" x2="4.3" y2="-5.2" width="0.2032" layer="21"/>
<wire x1="4.3" y1="5.2" x2="5.2" y2="4.3" width="0.2032" layer="21"/>
<wire x1="4.65" y1="-1.55" x2="4.65" y2="1.55" width="0.2032" layer="51" curve="36.869898" cap="flat"/>
<wire x1="-4.65" y1="-1.55" x2="-4.65" y2="1.55" width="0.2032" layer="51" curve="-36.869898" cap="flat"/>
<wire x1="-4.65" y1="-1.55" x2="4.65" y2="-1.55" width="0.2032" layer="21" curve="143.130102" cap="flat"/>
<wire x1="-4.65" y1="1.55" x2="4.65" y2="1.55" width="0.2032" layer="21" curve="-143.130102" cap="flat"/>
<smd name="+" x="4.15" y="0" dx="4.3" dy="2.5" layer="1"/>
<smd name="-" x="-4.15" y="0" dx="4.3" dy="2.5" layer="1"/>
<text x="-5.29" y="5.53" size="1.27" layer="25">&gt;NAME</text>
<text x="-5.325" y="-6.785" size="1.27" layer="27">&gt;VALUE</text>
</package>
<package name="C_POL_SMD_100UF/16V">
<wire x1="-3.2" y1="3.2" x2="2.4" y2="3.2" width="0.2032" layer="21"/>
<wire x1="2.4" y1="3.2" x2="3.2" y2="2.4" width="0.2032" layer="21"/>
<wire x1="3.2" y1="2.4" x2="3.2" y2="-2.4" width="0.2032" layer="51"/>
<wire x1="3.2" y1="-2.4" x2="2.4" y2="-3.2" width="0.2032" layer="21"/>
<wire x1="2.4" y1="-3.2" x2="-3.2" y2="-3.2" width="0.2032" layer="21"/>
<wire x1="-3.2" y1="-3.2" x2="-3.2" y2="3.2" width="0.2032" layer="51"/>
<circle x="0" y="0" radius="2.95" width="0.2032" layer="51"/>
<smd name="-" x="-2.8" y="0" dx="3.5" dy="1.6" layer="1"/>
<smd name="+" x="2.8" y="0" dx="3.5" dy="1.6" layer="1"/>
<text x="-3.175" y="3.81" size="1.27" layer="25">&gt;NAME</text>
<text x="-3.175" y="-5.08" size="1.27" layer="27">&gt;VALUE</text>
<polygon width="0.2032" layer="51">
<vertex x="-2.2" y="1.9"/>
<vertex x="-2.2" y="-1.9" curve="-39.18521"/>
<vertex x="-2.85" y="0" curve="-36.094684"/>
</polygon>
</package>
<package name="C_POL_SMD_100UF/50V">
<wire x1="3.3" y1="-4.2" x2="-4.2" y2="-4.2" width="0.2032" layer="21"/>
<wire x1="-4.2" y1="-4.2" x2="-4.2" y2="-1.5" width="0.2032" layer="21"/>
<wire x1="-4.2" y1="-1.5" x2="-4.2" y2="1.5" width="0.2032" layer="51"/>
<wire x1="-4.2" y1="1.5" x2="-4.2" y2="4.2" width="0.2032" layer="21"/>
<wire x1="-4.2" y1="4.2" x2="3.3" y2="4.2" width="0.2032" layer="21"/>
<wire x1="4.2" y1="3.3" x2="4.2" y2="1.5" width="0.2032" layer="21"/>
<wire x1="4.2" y1="1.5" x2="4.2" y2="-1.5" width="0.2032" layer="51"/>
<wire x1="4.2" y1="-1.5" x2="4.2" y2="-3.3" width="0.2032" layer="21"/>
<wire x1="4.2" y1="-3.3" x2="3.3" y2="-4.2" width="0.2032" layer="21"/>
<wire x1="3.3" y1="4.2" x2="4.2" y2="3.3" width="0.2032" layer="21"/>
<wire x1="-3.65" y1="-1.4" x2="3.65" y2="-1.4" width="0.2032" layer="21" curve="138.030204" cap="flat"/>
<wire x1="-3.65" y1="-1.4" x2="-3.65" y2="1.4" width="0.2032" layer="51" curve="-41.969796" cap="flat"/>
<wire x1="-3.65" y1="1.4" x2="3.65" y2="1.4" width="0.2032" layer="21" curve="-138.030204" cap="flat"/>
<wire x1="3.65" y1="-1.4" x2="3.65" y2="1.4" width="0.2032" layer="51" curve="41.969796" cap="flat"/>
<smd name="+" x="3.25" y="0" dx="3.5" dy="2.5" layer="1"/>
<smd name="-" x="-3.25" y="0" dx="3.5" dy="2.5" layer="1"/>
<text x="-4.29" y="4.53" size="1.27" layer="25">&gt;NAME</text>
<text x="-4.325" y="-5.785" size="1.27" layer="27">&gt;VALUE</text>
</package>
<package name="C_POL_SMD_1UF/50V">
<wire x1="-2.05" y1="2.05" x2="1.25" y2="2.05" width="0.2032" layer="21"/>
<wire x1="1.25" y1="2.05" x2="2.05" y2="1.25" width="0.2032" layer="21"/>
<wire x1="2.05" y1="1.25" x2="2.05" y2="-1.25" width="0.2032" layer="51"/>
<wire x1="2.05" y1="-1.25" x2="1.25" y2="-2.05" width="0.2032" layer="21"/>
<wire x1="1.25" y1="-2.05" x2="-2.05" y2="-2.05" width="0.2032" layer="21"/>
<wire x1="-2.05" y1="-2.05" x2="-2.05" y2="2.05" width="0.2032" layer="51"/>
<circle x="0" y="0" radius="1.85" width="0.2032" layer="51"/>
<smd name="-" x="-1.8" y="0" dx="2.6" dy="1.6" layer="1"/>
<smd name="+" x="1.8" y="0" dx="2.6" dy="1.6" layer="1"/>
<text x="-1.905" y="2.54" size="1.27" layer="25">&gt;NAME</text>
<text x="-1.905" y="-3.81" size="1.27" layer="27">&gt;VALUE</text>
<polygon width="0.2032" layer="51">
<vertex x="-1.2" y="-1.35"/>
<vertex x="-1.2" y="1.35" curve="44.759919"/>
<vertex x="-1.8" y="0" curve="39.027281"/>
</polygon>
</package>
<package name="C_POL_SMD_220UF/16V">
<wire x1="-3.2" y1="3.2" x2="2.4" y2="3.2" width="0.2032" layer="21"/>
<wire x1="2.4" y1="3.2" x2="3.2" y2="2.4" width="0.2032" layer="21"/>
<wire x1="3.2" y1="2.4" x2="3.2" y2="-2.4" width="0.2032" layer="51"/>
<wire x1="3.2" y1="-2.4" x2="2.4" y2="-3.2" width="0.2032" layer="21"/>
<wire x1="2.4" y1="-3.2" x2="-3.2" y2="-3.2" width="0.2032" layer="21"/>
<wire x1="-3.2" y1="-3.2" x2="-3.2" y2="3.2" width="0.2032" layer="51"/>
<circle x="0" y="0" radius="2.95" width="0.2032" layer="51"/>
<smd name="-" x="-2.8" y="0" dx="3.5" dy="1.6" layer="1"/>
<smd name="+" x="2.8" y="0" dx="3.5" dy="1.6" layer="1"/>
<text x="-3.175" y="3.81" size="1.27" layer="25">&gt;NAME</text>
<text x="-3.175" y="-5.08" size="1.27" layer="27">&gt;VALUE</text>
<polygon width="0.2032" layer="51">
<vertex x="-2.2" y="1.9"/>
<vertex x="-2.2" y="-1.9" curve="-39.18521"/>
<vertex x="-2.85" y="0" curve="-36.094684"/>
</polygon>
</package>
<package name="C_POL_SMD_4,7UF/50V">
<wire x1="-2.05" y1="2.05" x2="1.25" y2="2.05" width="0.2032" layer="21"/>
<wire x1="1.25" y1="2.05" x2="2.05" y2="1.25" width="0.2032" layer="21"/>
<wire x1="2.05" y1="1.25" x2="2.05" y2="-1.25" width="0.2032" layer="51"/>
<wire x1="2.05" y1="-1.25" x2="1.25" y2="-2.05" width="0.2032" layer="21"/>
<wire x1="1.25" y1="-2.05" x2="-2.05" y2="-2.05" width="0.2032" layer="21"/>
<wire x1="-2.05" y1="-2.05" x2="-2.05" y2="2.05" width="0.2032" layer="51"/>
<circle x="0" y="0" radius="1.85" width="0.2032" layer="51"/>
<smd name="-" x="-1.8" y="0" dx="2.6" dy="1.6" layer="1"/>
<smd name="+" x="1.8" y="0" dx="2.6" dy="1.6" layer="1"/>
<text x="-1.905" y="2.54" size="1.27" layer="25">&gt;NAME</text>
<text x="-1.905" y="-3.81" size="1.27" layer="27">&gt;VALUE</text>
<polygon width="0.2032" layer="51">
<vertex x="-1.2" y="-1.35"/>
<vertex x="-1.2" y="1.35" curve="44.759919"/>
<vertex x="-1.8" y="0" curve="39.027281"/>
</polygon>
</package>
<package name="C_POL_SMD_470UF/16V">
<wire x1="3.3" y1="-4.2" x2="-4.2" y2="-4.2" width="0.2032" layer="21"/>
<wire x1="-4.2" y1="-4.2" x2="-4.2" y2="-1.5" width="0.2032" layer="21"/>
<wire x1="-4.2" y1="-1.5" x2="-4.2" y2="1.5" width="0.2032" layer="51"/>
<wire x1="-4.2" y1="1.5" x2="-4.2" y2="4.2" width="0.2032" layer="21"/>
<wire x1="-4.2" y1="4.2" x2="3.3" y2="4.2" width="0.2032" layer="21"/>
<wire x1="4.2" y1="3.3" x2="4.2" y2="1.5" width="0.2032" layer="21"/>
<wire x1="4.2" y1="1.5" x2="4.2" y2="-1.5" width="0.2032" layer="51"/>
<wire x1="4.2" y1="-1.5" x2="4.2" y2="-3.3" width="0.2032" layer="21"/>
<wire x1="4.2" y1="-3.3" x2="3.3" y2="-4.2" width="0.2032" layer="21"/>
<wire x1="3.3" y1="4.2" x2="4.2" y2="3.3" width="0.2032" layer="21"/>
<wire x1="-3.65" y1="-1.4" x2="3.65" y2="-1.4" width="0.2032" layer="21" curve="138.030204" cap="flat"/>
<wire x1="-3.65" y1="-1.4" x2="-3.65" y2="1.4" width="0.2032" layer="51" curve="-41.969796" cap="flat"/>
<wire x1="-3.65" y1="1.4" x2="3.65" y2="1.4" width="0.2032" layer="21" curve="-138.030204" cap="flat"/>
<wire x1="3.65" y1="-1.4" x2="3.65" y2="1.4" width="0.2032" layer="51" curve="41.969796" cap="flat"/>
<smd name="+" x="3.25" y="0" dx="3.5" dy="2.5" layer="1"/>
<smd name="-" x="-3.25" y="0" dx="3.5" dy="2.5" layer="1"/>
<text x="-4.29" y="4.53" size="1.27" layer="25">&gt;NAME</text>
<text x="-4.325" y="-5.785" size="1.27" layer="27">&gt;VALUE</text>
</package>
<package name="C_POL_SMD_470UF/25V">
<wire x1="4.3" y1="-5.2" x2="-5.2" y2="-5.2" width="0.2032" layer="21"/>
<wire x1="-5.2" y1="-5.2" x2="-5.2" y2="-1.5" width="0.2032" layer="21"/>
<wire x1="-5.2" y1="-1.5" x2="-5.2" y2="1.5" width="0.2032" layer="51"/>
<wire x1="-5.2" y1="1.5" x2="-5.2" y2="5.2" width="0.2032" layer="21"/>
<wire x1="-5.2" y1="5.2" x2="4.3" y2="5.2" width="0.2032" layer="21"/>
<wire x1="5.2" y1="4.3" x2="5.2" y2="1.5" width="0.2032" layer="21"/>
<wire x1="5.2" y1="1.5" x2="5.2" y2="-1.5" width="0.2032" layer="51"/>
<wire x1="5.2" y1="-1.5" x2="5.2" y2="-4.3" width="0.2032" layer="21"/>
<wire x1="5.2" y1="-4.3" x2="4.3" y2="-5.2" width="0.2032" layer="21"/>
<wire x1="4.3" y1="5.2" x2="5.2" y2="4.3" width="0.2032" layer="21"/>
<wire x1="4.65" y1="-1.55" x2="4.65" y2="1.55" width="0.2032" layer="51" curve="36.869898" cap="flat"/>
<wire x1="-4.65" y1="-1.55" x2="-4.65" y2="1.55" width="0.2032" layer="51" curve="-36.869898" cap="flat"/>
<wire x1="-4.65" y1="-1.55" x2="4.65" y2="-1.55" width="0.2032" layer="21" curve="143.130102" cap="flat"/>
<wire x1="-4.65" y1="1.55" x2="4.65" y2="1.55" width="0.2032" layer="21" curve="-143.130102" cap="flat"/>
<smd name="+" x="4.15" y="0" dx="4.3" dy="2.5" layer="1"/>
<smd name="-" x="-4.15" y="0" dx="4.3" dy="2.5" layer="1"/>
<text x="-5.29" y="5.53" size="1.27" layer="25">&gt;NAME</text>
<text x="-5.325" y="-6.785" size="1.27" layer="27">&gt;VALUE</text>
</package>
<package name="C_POL_SMD_47UF/16V">
<wire x1="-2.55" y1="2.55" x2="1.75" y2="2.55" width="0.2032" layer="21"/>
<wire x1="1.75" y1="2.55" x2="2.55" y2="1.75" width="0.2032" layer="21"/>
<wire x1="2.55" y1="1.75" x2="2.55" y2="-1.75" width="0.2032" layer="51"/>
<wire x1="2.55" y1="-1.75" x2="1.75" y2="-2.55" width="0.2032" layer="21"/>
<wire x1="1.75" y1="-2.55" x2="-2.55" y2="-2.55" width="0.2032" layer="21"/>
<wire x1="-2.55" y1="-2.55" x2="-2.55" y2="2.55" width="0.2032" layer="51"/>
<circle x="0" y="0" radius="2.35" width="0.2032" layer="51"/>
<smd name="-" x="-2.2" y="0" dx="3" dy="1.6" layer="1"/>
<smd name="+" x="2.2" y="0" dx="3" dy="1.6" layer="1"/>
<text x="-2.54" y="3.175" size="1.27" layer="25">&gt;NAME</text>
<text x="-2.54" y="-4.445" size="1.27" layer="27">&gt;VALUE</text>
<polygon width="0.2032" layer="51">
<vertex x="-1.6" y="-1.65"/>
<vertex x="-1.6" y="1.65" curve="35.983944"/>
<vertex x="-2.3" y="0" curve="42.321615"/>
</polygon>
</package>
<package name="C_POL_SMD_1000UF/25V">
<wire x1="4.064" y1="6.35" x2="-6.35" y2="6.35" width="0.127" layer="21"/>
<wire x1="-6.35" y1="6.35" x2="-6.35" y2="-6.35" width="0.127" layer="21"/>
<wire x1="-6.35" y1="-6.35" x2="4.064" y2="-6.35" width="0.127" layer="21"/>
<wire x1="4.064" y1="-6.35" x2="6.35" y2="-4.064" width="0.127" layer="21"/>
<wire x1="6.35" y1="-4.064" x2="6.35" y2="4.064" width="0.127" layer="21"/>
<wire x1="6.35" y1="4.064" x2="4.064" y2="6.35" width="0.127" layer="21"/>
<circle x="0" y="0" radius="6.3092" width="0.127" layer="21"/>
<smd name="+" x="5.166" y="0" dx="5.08" dy="2.54" layer="1"/>
<smd name="-" x="-5.166" y="0" dx="5.08" dy="2.54" layer="1"/>
<text x="-6.306" y="6.8" size="1.27" layer="25">&gt;NAME</text>
<text x="-6.341" y="-8.055" size="1.27" layer="27">&gt;VALUE</text>
</package>
<package name="C0603K">
<description>&lt;b&gt;Ceramic Chip Capacitor KEMET 0603 reflow solder&lt;/b&gt;&lt;p&gt;
Metric Code Size 1608</description>
<wire x1="-0.725" y1="0.35" x2="0.725" y2="0.35" width="0.1016" layer="51"/>
<wire x1="0.725" y1="-0.35" x2="-0.725" y2="-0.35" width="0.1016" layer="51"/>
<smd name="1" x="-0.875" y="0" dx="1.05" dy="1.08" layer="1"/>
<smd name="2" x="0.875" y="0" dx="1.05" dy="1.08" layer="1"/>
<text x="-0.8" y="0.65" size="1.016" layer="25">&gt;NAME</text>
<text x="-0.8" y="-1.65" size="1.016" layer="27">&gt;VALUE</text>
<rectangle x1="-0.8" y1="-0.4" x2="-0.45" y2="0.4" layer="51"/>
<rectangle x1="0.45" y1="-0.4" x2="0.8" y2="0.4" layer="51"/>
</package>
<package name="C0805K">
<description>&lt;b&gt;Ceramic Chip Capacitor KEMET 0805 reflow solder&lt;/b&gt;&lt;p&gt;
Metric Code Size 2012</description>
<wire x1="-0.925" y1="0.6" x2="0.925" y2="0.6" width="0.1016" layer="51"/>
<wire x1="0.925" y1="-0.6" x2="-0.925" y2="-0.6" width="0.1016" layer="51"/>
<smd name="1" x="-1" y="0" dx="1.3" dy="1.6" layer="1"/>
<smd name="2" x="1" y="0" dx="1.3" dy="1.6" layer="1"/>
<text x="-1" y="0.875" size="1.016" layer="25">&gt;NAME</text>
<text x="-1" y="-1.9" size="1.016" layer="27">&gt;VALUE</text>
<rectangle x1="-1" y1="-0.65" x2="-0.5" y2="0.65" layer="51"/>
<rectangle x1="0.5" y1="-0.65" x2="1" y2="0.65" layer="51"/>
</package>
<package name="C1206K">
<description>&lt;b&gt;Ceramic Chip Capacitor KEMET 1206 reflow solder&lt;/b&gt;&lt;p&gt;
Metric Code Size 3216</description>
<wire x1="-1.525" y1="0.75" x2="1.525" y2="0.75" width="0.1016" layer="51"/>
<wire x1="1.525" y1="-0.75" x2="-1.525" y2="-0.75" width="0.1016" layer="51"/>
<smd name="1" x="-1.5" y="0" dx="1.5" dy="2" layer="1"/>
<smd name="2" x="1.5" y="0" dx="1.5" dy="2" layer="1"/>
<text x="-1.6" y="1.1" size="1.016" layer="25">&gt;NAME</text>
<text x="-1.6" y="-2.1" size="1.016" layer="27">&gt;VALUE</text>
<rectangle x1="-1.6" y1="-0.8" x2="-1.1" y2="0.8" layer="51"/>
<rectangle x1="1.1" y1="-0.8" x2="1.6" y2="0.8" layer="51"/>
</package>
<package name="0204/7">
<description>&lt;b&gt;RESISTOR&lt;/b&gt;&lt;p&gt;
type 0204, grid 7.5 mm</description>
<wire x1="3.81" y1="0" x2="2.921" y2="0" width="0.508" layer="51"/>
<wire x1="-3.81" y1="0" x2="-2.921" y2="0" width="0.508" layer="51"/>
<wire x1="-2.54" y1="0.762" x2="-2.286" y2="1.016" width="0.1524" layer="21" curve="-90"/>
<wire x1="-2.54" y1="-0.762" x2="-2.286" y2="-1.016" width="0.1524" layer="21" curve="90"/>
<wire x1="2.286" y1="-1.016" x2="2.54" y2="-0.762" width="0.1524" layer="21" curve="90"/>
<wire x1="2.286" y1="1.016" x2="2.54" y2="0.762" width="0.1524" layer="21" curve="-90"/>
<wire x1="-2.54" y1="-0.762" x2="-2.54" y2="0.762" width="0.1524" layer="21"/>
<wire x1="-2.286" y1="1.016" x2="-1.905" y2="1.016" width="0.1524" layer="21"/>
<wire x1="-1.778" y1="0.889" x2="-1.905" y2="1.016" width="0.1524" layer="21"/>
<wire x1="-2.286" y1="-1.016" x2="-1.905" y2="-1.016" width="0.1524" layer="21"/>
<wire x1="-1.778" y1="-0.889" x2="-1.905" y2="-1.016" width="0.1524" layer="21"/>
<wire x1="1.778" y1="0.889" x2="1.905" y2="1.016" width="0.1524" layer="21"/>
<wire x1="1.778" y1="0.889" x2="-1.778" y2="0.889" width="0.1524" layer="21"/>
<wire x1="1.778" y1="-0.889" x2="1.905" y2="-1.016" width="0.1524" layer="21"/>
<wire x1="1.778" y1="-0.889" x2="-1.778" y2="-0.889" width="0.1524" layer="21"/>
<wire x1="2.286" y1="1.016" x2="1.905" y2="1.016" width="0.1524" layer="21"/>
<wire x1="2.286" y1="-1.016" x2="1.905" y2="-1.016" width="0.1524" layer="21"/>
<wire x1="2.54" y1="-0.762" x2="2.54" y2="0.762" width="0.1524" layer="21"/>
<pad name="1" x="-3.81" y="0" drill="0.8128" shape="octagon"/>
<pad name="2" x="3.81" y="0" drill="0.8128" shape="octagon"/>
<text x="-2.54" y="1.2954" size="0.9906" layer="25" ratio="10">&gt;NAME</text>
<text x="-1.6256" y="-0.4826" size="0.9906" layer="27" ratio="10">&gt;VALUE</text>
<rectangle x1="2.54" y1="-0.254" x2="2.921" y2="0.254" layer="21"/>
<rectangle x1="-2.921" y1="-0.254" x2="-2.54" y2="0.254" layer="21"/>
</package>
<package name="R0603">
<description>&lt;b&gt;RESISTOR&lt;/b&gt;</description>
<wire x1="-0.432" y1="-0.356" x2="0.432" y2="-0.356" width="0.1524" layer="21"/>
<wire x1="0.432" y1="0.356" x2="-0.432" y2="0.356" width="0.1524" layer="21"/>
<wire x1="-1.473" y1="0.983" x2="1.473" y2="0.983" width="0.0508" layer="39"/>
<wire x1="1.473" y1="0.983" x2="1.473" y2="-0.983" width="0.0508" layer="39"/>
<wire x1="1.473" y1="-0.983" x2="-1.473" y2="-0.983" width="0.0508" layer="39"/>
<wire x1="-1.473" y1="-0.983" x2="-1.473" y2="0.983" width="0.0508" layer="39"/>
<smd name="1" x="-0.85" y="0" dx="1" dy="1.1" layer="1"/>
<smd name="2" x="0.85" y="0" dx="1" dy="1.1" layer="1"/>
<text x="-0.635" y="0.635" size="1.27" layer="25">&gt;NAME</text>
<text x="-0.635" y="-1.905" size="1.27" layer="27">&gt;VALUE</text>
<rectangle x1="0.4318" y1="-0.4318" x2="0.8382" y2="0.4318" layer="21"/>
<rectangle x1="-0.8382" y1="-0.4318" x2="-0.4318" y2="0.4318" layer="21"/>
<rectangle x1="-0.1999" y1="-0.4001" x2="0.1999" y2="0.4001" layer="35"/>
</package>
<package name="R0805">
<description>&lt;b&gt;RESISTOR&lt;/b&gt;&lt;p&gt;</description>
<wire x1="-0.41" y1="0.635" x2="0.41" y2="0.635" width="0.1524" layer="51"/>
<wire x1="-0.41" y1="-0.635" x2="0.41" y2="-0.635" width="0.1524" layer="51"/>
<wire x1="-1.973" y1="0.983" x2="1.973" y2="0.983" width="0.0508" layer="39"/>
<wire x1="1.973" y1="0.983" x2="1.973" y2="-0.983" width="0.0508" layer="39"/>
<wire x1="1.973" y1="-0.983" x2="-1.973" y2="-0.983" width="0.0508" layer="39"/>
<wire x1="-1.973" y1="-0.983" x2="-1.973" y2="0.983" width="0.0508" layer="39"/>
<smd name="1" x="-0.95" y="0" dx="1.3" dy="1.5" layer="1"/>
<smd name="2" x="0.95" y="0" dx="1.3" dy="1.5" layer="1"/>
<text x="-0.635" y="1.27" size="1.016" layer="25">&gt;NAME</text>
<text x="-0.635" y="-2.54" size="1.016" layer="27">&gt;VALUE</text>
<rectangle x1="0.4064" y1="-0.6985" x2="1.0564" y2="0.7015" layer="51"/>
<rectangle x1="-1.0668" y1="-0.6985" x2="-0.4168" y2="0.7015" layer="51"/>
<rectangle x1="-0.1999" y1="-0.5001" x2="0.1999" y2="0.5001" layer="35"/>
</package>
<package name="R1206">
<description>&lt;b&gt;RESISTOR&lt;/b&gt;</description>
<wire x1="0.9525" y1="-0.8128" x2="-0.9652" y2="-0.8128" width="0.1524" layer="51"/>
<wire x1="0.9525" y1="0.8128" x2="-0.9652" y2="0.8128" width="0.1524" layer="51"/>
<wire x1="-2.473" y1="0.983" x2="2.473" y2="0.983" width="0.0508" layer="39"/>
<wire x1="2.473" y1="0.983" x2="2.473" y2="-0.983" width="0.0508" layer="39"/>
<wire x1="2.473" y1="-0.983" x2="-2.473" y2="-0.983" width="0.0508" layer="39"/>
<wire x1="-2.473" y1="-0.983" x2="-2.473" y2="0.983" width="0.0508" layer="39"/>
<smd name="2" x="1.422" y="0" dx="1.6" dy="1.803" layer="1"/>
<smd name="1" x="-1.422" y="0" dx="1.6" dy="1.803" layer="1"/>
<text x="-1.27" y="1.27" size="1.27" layer="25">&gt;NAME</text>
<text x="-1.27" y="-2.54" size="1.27" layer="27">&gt;VALUE</text>
<rectangle x1="-1.6891" y1="-0.8763" x2="-0.9525" y2="0.8763" layer="51"/>
<rectangle x1="0.9525" y1="-0.8763" x2="1.6891" y2="0.8763" layer="51"/>
<rectangle x1="-0.3" y1="-0.7" x2="0.3" y2="0.7" layer="35"/>
</package>
<package name="RTRIM64W">
<description>&lt;b&gt;Trimm resistor&lt;/b&gt; Spectrol&lt;p&gt;
Cermet MIL-R-22097</description>
<wire x1="2.52" y1="-4.8" x2="-2.03" y2="-4.8" width="0.254" layer="21"/>
<wire x1="-2.03" y1="-4.8" x2="-2.03" y2="4.8" width="0.254" layer="21"/>
<wire x1="-2.03" y1="4.8" x2="2.52" y2="4.8" width="0.254" layer="21"/>
<wire x1="2.52" y1="4.8" x2="2.52" y2="3.2" width="0.254" layer="21"/>
<wire x1="2.52" y1="3.2" x2="2.27" y2="3.2" width="0.254" layer="21"/>
<wire x1="2.27" y1="3.2" x2="2.27" y2="-3.2" width="0.254" layer="21"/>
<wire x1="2.27" y1="-3.2" x2="2.52" y2="-3.2" width="0.254" layer="21"/>
<wire x1="2.52" y1="-3.2" x2="2.52" y2="-4.8" width="0.254" layer="21"/>
<circle x="-0.58" y="3.3" radius="1.1" width="0.1524" layer="21"/>
<pad name="1" x="1.27" y="-2.54" drill="0.6096"/>
<pad name="2" x="1.27" y="0" drill="0.6096"/>
<pad name="3" x="1.27" y="2.54" drill="0.6096"/>
<text x="-2.62" y="-4.95" size="1.27" layer="25" rot="R90">&gt;NAME</text>
<text x="4.35" y="-4.95" size="1.27" layer="27" rot="R90">&gt;VALUE</text>
<rectangle x1="-0.78" y1="2.25" x2="-0.38" y2="4.35" layer="21"/>
</package>
<package name="POT_ALPHA_RV16AF-20">
<description>Package for Alpha RV16AF-20 potentiometer</description>
<wire x1="-8.5" y1="0" x2="-8.5" y2="5.3" width="0.2032" layer="21"/>
<wire x1="-8.5" y1="5.3" x2="8.5" y2="5.3" width="0.2032" layer="21"/>
<wire x1="8.5" y1="5.3" x2="8.5" y2="0" width="0.2032" layer="21"/>
<wire x1="-8.5" y1="0" x2="-6.5" y2="0" width="0.2032" layer="21"/>
<wire x1="6.5" y1="0" x2="8.5" y2="0" width="0.2032" layer="21"/>
<wire x1="-3" y1="0" x2="-3" y2="-17" width="0.127" layer="51"/>
<wire x1="-3" y1="-17" x2="3" y2="-17" width="0.127" layer="51"/>
<wire x1="3" y1="-17" x2="3" y2="0" width="0.127" layer="51"/>
<wire x1="-3.5" y1="0" x2="-1.5" y2="0" width="0.2032" layer="21"/>
<wire x1="1.5" y1="0" x2="3.5" y2="0" width="0.2032" layer="21"/>
<pad name="1" x="-5" y="0" drill="1.5" diameter="2.54"/>
<pad name="2" x="0" y="0" drill="1.5" diameter="2.54"/>
<pad name="3" x="5" y="0" drill="1.5" diameter="2.54"/>
<text x="-3" y="2.5" size="1.27" layer="21">&gt;Value</text>
<text x="-8.4" y="5.6" size="1.27" layer="25">&gt;Name</text>
</package>
<package name="CRYSTAL-DIP">
<wire x1="-2.921" y1="-2.286" x2="2.921" y2="-2.286" width="0.4064" layer="21"/>
<wire x1="-2.921" y1="2.286" x2="2.921" y2="2.286" width="0.4064" layer="21"/>
<wire x1="-2.921" y1="-1.778" x2="2.921" y2="-1.778" width="0.1524" layer="21"/>
<wire x1="2.921" y1="1.778" x2="-2.921" y2="1.778" width="0.1524" layer="21"/>
<wire x1="2.921" y1="1.778" x2="2.921" y2="-1.778" width="0.1524" layer="21" curve="-180"/>
<wire x1="2.921" y1="2.286" x2="2.921" y2="-2.286" width="0.4064" layer="21" curve="-180"/>
<wire x1="-2.921" y1="2.286" x2="-2.921" y2="-2.286" width="0.4064" layer="21" curve="180"/>
<wire x1="-2.921" y1="1.778" x2="-2.921" y2="-1.778" width="0.1524" layer="21" curve="180"/>
<wire x1="-0.254" y1="0.889" x2="0.254" y2="0.889" width="0.1524" layer="21"/>
<wire x1="0.254" y1="0.889" x2="0.254" y2="-0.889" width="0.1524" layer="21"/>
<wire x1="0.254" y1="-0.889" x2="-0.254" y2="-0.889" width="0.1524" layer="21"/>
<wire x1="-0.254" y1="-0.889" x2="-0.254" y2="0.889" width="0.1524" layer="21"/>
<wire x1="0.635" y1="0.889" x2="0.635" y2="0" width="0.1524" layer="21"/>
<wire x1="0.635" y1="0" x2="0.635" y2="-0.889" width="0.1524" layer="21"/>
<wire x1="-0.635" y1="0.889" x2="-0.635" y2="0" width="0.1524" layer="21"/>
<wire x1="-0.635" y1="0" x2="-0.635" y2="-0.889" width="0.1524" layer="21"/>
<wire x1="0.635" y1="0" x2="1.27" y2="0" width="0.1524" layer="21"/>
<wire x1="-0.635" y1="0" x2="-1.27" y2="0" width="0.1524" layer="21"/>
<pad name="1" x="-2.413" y="0" drill="0.8128"/>
<pad name="2" x="2.413" y="0" drill="0.8128"/>
<text x="-5.08" y="2.921" size="1.27" layer="25" ratio="10">&gt;NAME</text>
<text x="-5.08" y="-4.191" size="1.27" layer="27" ratio="10">&gt;VALUE</text>
</package>
<package name="CRYSTAL-SMD">
<description>&lt;b&gt;CRYSTAL&lt;/b&gt;</description>
<wire x1="-5.1091" y1="1.143" x2="-3.429" y2="2.0321" width="0.0508" layer="21" curve="-55.770993"/>
<wire x1="-5.715" y1="1.143" x2="-5.715" y2="2.159" width="0.1524" layer="21"/>
<wire x1="3.429" y1="2.032" x2="5.1091" y2="1.143" width="0.0508" layer="21" curve="-55.772485"/>
<wire x1="5.715" y1="1.143" x2="5.715" y2="2.159" width="0.1524" layer="21"/>
<wire x1="3.429" y1="-1.27" x2="-3.429" y2="-1.27" width="0.0508" layer="21"/>
<wire x1="3.429" y1="-2.032" x2="-3.429" y2="-2.032" width="0.0508" layer="21"/>
<wire x1="-3.429" y1="1.27" x2="3.429" y2="1.27" width="0.0508" layer="21"/>
<wire x1="5.461" y1="-2.413" x2="-5.461" y2="-2.413" width="0.1524" layer="21"/>
<wire x1="5.715" y1="-0.381" x2="6.477" y2="-0.381" width="0.1524" layer="51"/>
<wire x1="5.715" y1="0.381" x2="6.477" y2="0.381" width="0.1524" layer="51"/>
<wire x1="6.477" y1="-0.381" x2="6.477" y2="0.381" width="0.1524" layer="51"/>
<wire x1="5.461" y1="-2.413" x2="5.715" y2="-2.159" width="0.1524" layer="21" curve="90"/>
<wire x1="5.715" y1="-1.143" x2="5.715" y2="1.143" width="0.1524" layer="51"/>
<wire x1="5.715" y1="-2.159" x2="5.715" y2="-1.143" width="0.1524" layer="21"/>
<wire x1="3.429" y1="-1.27" x2="3.9826" y2="-1.143" width="0.0508" layer="21" curve="25.842828"/>
<wire x1="3.429" y1="1.27" x2="3.9826" y2="1.143" width="0.0508" layer="21" curve="-25.842828"/>
<wire x1="3.429" y1="-2.032" x2="5.109" y2="-1.1429" width="0.0508" layer="21" curve="55.771157"/>
<wire x1="3.9826" y1="-1.143" x2="3.9826" y2="1.143" width="0.0508" layer="51" curve="128.314524"/>
<wire x1="5.1091" y1="-1.143" x2="5.1091" y2="1.143" width="0.0508" layer="51" curve="68.456213"/>
<wire x1="-5.1091" y1="-1.143" x2="-3.429" y2="-2.032" width="0.0508" layer="21" curve="55.772485"/>
<wire x1="-3.9826" y1="-1.143" x2="-3.9826" y2="1.143" width="0.0508" layer="51" curve="-128.314524"/>
<wire x1="-3.9826" y1="-1.143" x2="-3.429" y2="-1.27" width="0.0508" layer="21" curve="25.842828"/>
<wire x1="-3.9826" y1="1.143" x2="-3.429" y2="1.27" width="0.0508" layer="21" curve="-25.842828"/>
<wire x1="-6.477" y1="-0.381" x2="-6.477" y2="0.381" width="0.1524" layer="51"/>
<wire x1="-5.1091" y1="-1.143" x2="-5.1091" y2="1.143" width="0.0508" layer="51" curve="-68.456213"/>
<wire x1="-5.715" y1="-1.143" x2="-5.715" y2="-0.381" width="0.1524" layer="51"/>
<wire x1="-5.715" y1="-0.381" x2="-5.715" y2="0.381" width="0.1524" layer="51"/>
<wire x1="-5.715" y1="0.381" x2="-5.715" y2="1.143" width="0.1524" layer="51"/>
<wire x1="-5.715" y1="-2.159" x2="-5.715" y2="-1.143" width="0.1524" layer="21"/>
<wire x1="-5.715" y1="-2.159" x2="-5.461" y2="-2.413" width="0.1524" layer="21" curve="90"/>
<wire x1="-5.715" y1="-0.381" x2="-6.477" y2="-0.381" width="0.1524" layer="51"/>
<wire x1="-5.715" y1="0.381" x2="-6.477" y2="0.381" width="0.1524" layer="51"/>
<wire x1="-3.429" y1="2.032" x2="3.429" y2="2.032" width="0.0508" layer="21"/>
<wire x1="5.461" y1="2.413" x2="-5.461" y2="2.413" width="0.1524" layer="21"/>
<wire x1="5.461" y1="2.413" x2="5.715" y2="2.159" width="0.1524" layer="21" curve="-90"/>
<wire x1="-5.715" y1="2.159" x2="-5.461" y2="2.413" width="0.1524" layer="21" curve="-90"/>
<wire x1="-0.254" y1="0.635" x2="-0.254" y2="-0.635" width="0.1524" layer="21"/>
<wire x1="-0.254" y1="-0.635" x2="0.254" y2="-0.635" width="0.1524" layer="21"/>
<wire x1="0.254" y1="-0.635" x2="0.254" y2="0.635" width="0.1524" layer="21"/>
<wire x1="0.254" y1="0.635" x2="-0.254" y2="0.635" width="0.1524" layer="21"/>
<wire x1="-0.635" y1="0.635" x2="-0.635" y2="0" width="0.1524" layer="21"/>
<wire x1="-0.635" y1="0" x2="-0.635" y2="-0.635" width="0.1524" layer="21"/>
<wire x1="-0.635" y1="0" x2="-1.016" y2="0" width="0.0508" layer="21"/>
<wire x1="0.635" y1="0.635" x2="0.635" y2="0" width="0.1524" layer="21"/>
<wire x1="0.635" y1="0" x2="0.635" y2="-0.635" width="0.1524" layer="21"/>
<wire x1="0.635" y1="0" x2="1.016" y2="0" width="0.0508" layer="21"/>
<smd name="1" x="-4.826" y="0" dx="5.334" dy="1.9304" layer="1"/>
<smd name="2" x="4.826" y="0" dx="5.334" dy="1.9304" layer="1"/>
<text x="-5.715" y="2.794" size="1.27" layer="25" ratio="10">&gt;NAME</text>
<text x="-5.715" y="-4.191" size="1.27" layer="27" ratio="10">&gt;VALUE</text>
<rectangle x1="-6.604" y1="-3.048" x2="6.604" y2="3.048" layer="43"/>
</package>
<package name="CRYSTAL-SMD-ABM7">
<wire x1="-3" y1="1.5" x2="-3" y2="1.75" width="0.127" layer="21"/>
<wire x1="-3" y1="1.75" x2="3" y2="1.75" width="0.127" layer="21"/>
<wire x1="3" y1="1.75" x2="3" y2="1.5" width="0.127" layer="21"/>
<wire x1="-3" y1="-1.5" x2="-3" y2="-1.75" width="0.127" layer="21"/>
<wire x1="-3" y1="-1.75" x2="3" y2="-1.75" width="0.127" layer="21"/>
<wire x1="3" y1="-1.75" x2="3" y2="-1.5" width="0.127" layer="21"/>
<smd name="P$1" x="-2.404" y="0" dx="2.5" dy="2.6" layer="1"/>
<smd name="P$2" x="2.404" y="0" dx="2.5" dy="2.6" layer="1"/>
<text x="-3.175" y="1.905" size="1.27" layer="25" ratio="12">&gt;Name</text>
<text x="-3.175" y="-3.175" size="1.27" layer="27" ratio="12" rot="SR0">&gt;Value</text>
</package>
<package name="INDUCTOR_12X12MM">
<wire x1="-7.3" y1="5.99" x2="7.29" y2="5.99" width="0.127" layer="51"/>
<wire x1="7.29" y1="5.99" x2="7.29" y2="-6.36" width="0.127" layer="51"/>
<wire x1="7.29" y1="-6.36" x2="-7.3" y2="-6.36" width="0.127" layer="51"/>
<wire x1="-7.3" y1="-6.36" x2="-7.3" y2="5.99" width="0.127" layer="51"/>
<wire x1="-7.409" y1="6.28" x2="7.329" y2="6.28" width="0.127" layer="21"/>
<wire x1="7.329" y1="6.28" x2="7.329" y2="-6.62" width="0.127" layer="21"/>
<wire x1="7.329" y1="-6.62" x2="-7.409" y2="-6.62" width="0.127" layer="21"/>
<wire x1="-7.409" y1="-6.62" x2="-7.409" y2="6.28" width="0.127" layer="21"/>
<circle x="0.01" y="-0.12" radius="3.25" width="0.127" layer="51"/>
<smd name="P$1" x="-3.886" y="-0.22" dx="5" dy="11" layer="1"/>
<smd name="P$2" x="3.906" y="-0.22" dx="5" dy="11" layer="1"/>
<text x="-7.63" y="6.91" size="1.27" layer="25">&gt;NAME</text>
<text x="-7.39" y="-8.2" size="1.27" layer="27">&gt;VALUE</text>
</package>
<package name="INDUCTOR_6X6MM">
<description>&lt;b&gt;Source: &lt;/b&gt;http://www.tdk.co.jp/tefe02/e531_vlc6045.pdf</description>
<wire x1="-3" y1="3" x2="3" y2="3" width="0.127" layer="51"/>
<wire x1="3" y1="3" x2="3" y2="-3" width="0.127" layer="51"/>
<wire x1="3" y1="-3" x2="-3" y2="-3" width="0.127" layer="51"/>
<wire x1="-3" y1="-3" x2="-3" y2="3" width="0.127" layer="51"/>
<wire x1="-4.5" y1="3.5" x2="4.5" y2="3.5" width="0.127" layer="21"/>
<wire x1="4.5" y1="3.5" x2="4.5" y2="-3.5" width="0.127" layer="21"/>
<wire x1="4.5" y1="-3.5" x2="-4.5" y2="-3.5" width="0.127" layer="21"/>
<wire x1="-4.5" y1="-3.5" x2="-4.5" y2="3.5" width="0.127" layer="21"/>
<circle x="0" y="0" radius="3.25" width="0.127" layer="51"/>
<smd name="P$1" x="-2.35" y="0" dx="3.25" dy="6" layer="1"/>
<smd name="P$2" x="2.35" y="0" dx="3.25" dy="6" layer="1"/>
<text x="-4" y="4" size="1.27" layer="25">&gt;NAME</text>
<text x="-4" y="-5.77" size="1.27" layer="27">&gt;VALUE</text>
</package>
<package name="CRYSTAL-SMD-7X5">
<wire x1="1.402" y1="-0.4094" x2="1.402" y2="-0.6094" width="0.127" layer="21"/>
<wire x1="-0.889" y1="1.27" x2="-0.889" y2="2.921" width="0.2032" layer="21"/>
<wire x1="5.969" y1="1.27" x2="5.969" y2="2.921" width="0.2032" layer="21"/>
<wire x1="3.937" y1="5.207" x2="1.143" y2="5.207" width="0.2032" layer="21"/>
<wire x1="3.937" y1="-1.016" x2="1.143" y2="-1.016" width="0.2032" layer="21"/>
<circle x="1.402" y="-0.5094" radius="0.3" width="0.127" layer="21"/>
<circle x="1.402" y="-0.5094" radius="0.2236" width="0.127" layer="21"/>
<circle x="1.402" y="-0.5094" radius="0.1" width="0.127" layer="21"/>
<smd name="P$1" x="0" y="0" dx="2" dy="1.8" layer="1" rot="R90"/>
<smd name="P$2" x="5.08" y="0" dx="2" dy="1.8" layer="1" rot="R90"/>
<smd name="P$3" x="5.08" y="4.2" dx="2" dy="1.8" layer="1" rot="R90"/>
<smd name="P$4" x="0" y="4.2" dx="2" dy="1.8" layer="1" rot="R90"/>
<text x="-1.016" y="5.842" size="1.27" layer="25" ratio="15">&gt;Name</text>
<text x="-1.016" y="-2.921" size="1.27" layer="27" ratio="15">&gt;Value</text>
</package>
<package name="CRYSTAL-SMD-7.5X5.2-6PIN">
<description>FXO-HC73 Series Oscillator. 7.5x5.2mm 6-pin package</description>
<wire x1="3.75" y1="2.6" x2="-3.75" y2="2.6" width="0.127" layer="51"/>
<wire x1="-3.75" y1="2.6" x2="-3.75" y2="-2.6" width="0.127" layer="51"/>
<wire x1="-3.75" y1="-2.6" x2="3.75" y2="-2.6" width="0.127" layer="51"/>
<wire x1="3.75" y1="-2.6" x2="3.75" y2="2.6" width="0.127" layer="51"/>
<wire x1="-3.8" y1="2.4" x2="-3.8" y2="-2.4" width="0.127" layer="21"/>
<wire x1="3.8" y1="2.4" x2="3.8" y2="-2.4" width="0.127" layer="21"/>
<circle x="-3" y="-0.5" radius="0.3605" width="0.127" layer="21"/>
<smd name="2" x="2.54" y="-2.1" dx="2" dy="1.8" layer="1" rot="R90"/>
<smd name="3" x="2.54" y="2.1" dx="2" dy="1.8" layer="1" rot="R90"/>
<smd name="4" x="-2.54" y="2.1" dx="2" dy="1.8" layer="1" rot="R90"/>
<smd name="1" x="-2.54" y="-2.1" dx="2" dy="1.8" layer="1" rot="R90"/>
<smd name="NC0" x="0" y="-2.1" dx="2" dy="1.4" layer="1" rot="R90"/>
<smd name="NC1" x="0" y="2.1" dx="2" dy="1.4" layer="1" rot="R90"/>
<text x="-3.6" y="3.4" size="0.4064" layer="25">&gt;NAME</text>
<text x="-3.7" y="-3.8" size="0.4064" layer="27">&gt;VALUE</text>
</package>
<package name="CRYSTAL-SMD-5X3">
<wire x1="-0.6" y1="1.6" x2="0.6" y2="1.6" width="0.2032" layer="21"/>
<wire x1="2.5" y1="0.3" x2="2.5" y2="-0.3" width="0.2032" layer="21"/>
<wire x1="0.6" y1="-1.6" x2="-0.6" y2="-1.6" width="0.2032" layer="21"/>
<wire x1="-2.5" y1="0.3" x2="-2.5" y2="-0.3" width="0.2032" layer="21"/>
<smd name="1" x="-1.85" y="-1.15" dx="1.9" dy="1.1" layer="1"/>
<smd name="3" x="1.85" y="1.15" dx="1.9" dy="1.1" layer="1"/>
<smd name="4" x="-1.85" y="1.15" dx="1.9" dy="1.1" layer="1"/>
<smd name="2" x="1.85" y="-1.15" dx="1.9" dy="1.1" layer="1"/>
<text x="-2.54" y="1.905" size="0.4064" layer="25">&gt;NAME</text>
<text x="-2.54" y="-2.54" size="0.4064" layer="27">&gt;VALUE</text>
</package>
<package name="CRYSTAL-OSC-SMD-5X3">
<wire x1="-0.6" y1="1.6" x2="0.6" y2="1.6" width="0.2032" layer="21"/>
<wire x1="2.5" y1="0.3" x2="2.5" y2="-0.3" width="0.2032" layer="21"/>
<wire x1="0.6" y1="-1.6" x2="-0.6" y2="-1.6" width="0.2032" layer="21"/>
<wire x1="-2.5" y1="0.3" x2="-2.5" y2="-0.3" width="0.2032" layer="21"/>
<circle x="-3.4986" y="-1.2794" radius="0.2653" width="0.127" layer="21"/>
<circle x="-3.4986" y="-1.2794" radius="0.1456" width="0.127" layer="21"/>
<circle x="-3.4986" y="-1.2794" radius="0.0284" width="0.127" layer="21"/>
<smd name="1" x="-1.85" y="-1.15" dx="1.9" dy="1.1" layer="1"/>
<smd name="3" x="1.85" y="1.15" dx="1.9" dy="1.1" layer="1"/>
<smd name="4" x="-1.85" y="1.15" dx="1.9" dy="1.1" layer="1"/>
<smd name="2" x="1.85" y="-1.15" dx="1.9" dy="1.1" layer="1"/>
<text x="-2.54" y="1.905" size="0.4064" layer="25">&gt;NAME</text>
<text x="-2.54" y="-2.54" size="0.4064" layer="27">&gt;VALUE</text>
</package>
<package name="PTC1206">
<description>1206 (3216 Metric)</description>
<wire x1="-2.473" y1="0.983" x2="2.473" y2="0.983" width="0.0508" layer="39"/>
<wire x1="2.473" y1="-0.983" x2="-2.473" y2="-0.983" width="0.0508" layer="39"/>
<wire x1="-2.473" y1="-0.983" x2="-2.473" y2="0.983" width="0.0508" layer="39"/>
<wire x1="2.473" y1="0.983" x2="2.473" y2="-0.983" width="0.0508" layer="39"/>
<wire x1="-0.965" y1="0.787" x2="0.965" y2="0.787" width="0.1016" layer="51"/>
<wire x1="-0.965" y1="-0.787" x2="0.965" y2="-0.787" width="0.1016" layer="51"/>
<wire x1="-2.4" y1="1" x2="2.4" y2="1" width="0.127" layer="21"/>
<wire x1="2.4" y1="1" x2="2.4" y2="-1" width="0.127" layer="21"/>
<wire x1="2.4" y1="-1" x2="-2.4" y2="-1" width="0.127" layer="21"/>
<wire x1="-2.4" y1="-1" x2="-2.4" y2="1" width="0.127" layer="21"/>
<rectangle x1="-1.7018" y1="-0.8509" x2="-0.9517" y2="0.8491" layer="51"/>
<rectangle x1="0.9517" y1="-0.8491" x2="1.7018" y2="0.8509" layer="51"/>
<rectangle x1="-0.1999" y1="-0.4001" x2="0.1999" y2="0.4001" layer="35"/>
<smd name="1" x="-1.4" y="0" dx="1.6" dy="1.8" layer="1"/>
<smd name="2" x="1.4" y="0" dx="1.6" dy="1.8" layer="1"/>
<text x="2.794" y="0.127" size="0.4064" layer="25">&gt;NAME</text>
<text x="2.794" y="-0.508" size="0.4064" layer="27">&gt;VALUE</text>
</package>
<package name="PTC1812">
<description>PTC 1812 (4532 Metric)

Source: http://www.bourns.com/data/global/PDFs/MFMSMF.pdf</description>
<wire x1="-2.25" y1="1.625" x2="2.25" y2="1.625" width="0.127" layer="51"/>
<wire x1="-2.25" y1="-1.625" x2="2.25" y2="-1.625" width="0.127" layer="51"/>
<wire x1="-2.25" y1="1.625" x2="-2.25" y2="0.5" width="0.127" layer="51"/>
<wire x1="-2.25" y1="0.5" x2="-2.25" y2="-0.5" width="0.127" layer="51" curve="-180"/>
<wire x1="-2.25" y1="-0.5" x2="-2.25" y2="-1.625" width="0.127" layer="51"/>
<wire x1="2.25" y1="-1.625" x2="2.25" y2="-0.5" width="0.127" layer="51"/>
<wire x1="2.25" y1="-0.5" x2="2.25" y2="0.5" width="0.127" layer="51" curve="-180"/>
<wire x1="2.25" y1="0.5" x2="2.25" y2="1.625" width="0.127" layer="51"/>
<wire x1="-3.1" y1="2.1" x2="3.1" y2="2.1" width="0.127" layer="39"/>
<wire x1="3.1" y1="2.1" x2="3.1" y2="-2.1" width="0.127" layer="39"/>
<wire x1="3.1" y1="-2.1" x2="-3.1" y2="-2.1" width="0.127" layer="39"/>
<wire x1="-3.1" y1="-2.1" x2="-3.1" y2="2.1" width="0.127" layer="39"/>
<wire x1="-3.1115" y1="2.0955" x2="3.1115" y2="2.0955" width="0.127" layer="21"/>
<wire x1="3.1115" y1="2.0955" x2="3.1115" y2="-2.0955" width="0.127" layer="21"/>
<wire x1="3.1115" y1="-2.0955" x2="-3.1115" y2="-2.0955" width="0.127" layer="21"/>
<wire x1="-3.1115" y1="-2.0955" x2="-3.1115" y2="2.0955" width="0.127" layer="21"/>
<smd name="P$1" x="-2.1" y="0" dx="1.5" dy="3.7" layer="1"/>
<smd name="P$2" x="2.1" y="0" dx="1.5" dy="3.7" layer="1"/>
<text x="-2.54" y="2.54" size="1.27" layer="25">&gt;NAME</text>
<text x="-2.54" y="-3.81" size="1.27" layer="27">&gt;NAME</text>
</package>
<package name="PTC2920">
<description>&lt;p&gt;SIBA &lt;b&gt;2920&lt;/b&gt; (7.5 x 5.5)mm&lt;/p&gt;</description>
<wire x1="-3.99" y1="2.72" x2="3.99" y2="2.72" width="0.1524" layer="51"/>
<wire x1="3.99" y1="-2.72" x2="-3.99" y2="-2.72" width="0.1524" layer="51"/>
<wire x1="-4" y1="0.7" x2="-4" y2="-0.7" width="0.1524" layer="51" curve="-180"/>
<wire x1="4" y1="-0.7" x2="4" y2="0.7" width="0.1524" layer="51" curve="-180"/>
<wire x1="-1.99" y1="2.72" x2="1.99" y2="2.72" width="0.1524" layer="21"/>
<wire x1="1.99" y1="-2.72" x2="-1.99" y2="-2.72" width="0.1524" layer="21"/>
<wire x1="-3.99" y1="0.78" x2="-3.99" y2="2.72" width="0.1524" layer="51"/>
<wire x1="3.99" y1="-0.78" x2="3.99" y2="-2.72" width="0.1524" layer="51"/>
<wire x1="-3.99" y1="-2.72" x2="-3.99" y2="-0.78" width="0.1524" layer="51"/>
<wire x1="3.99" y1="2.72" x2="3.99" y2="0.78" width="0.1524" layer="51"/>
<wire x1="-5.3" y1="3.2" x2="5.3" y2="3.2" width="0.1016" layer="41"/>
<wire x1="5.3" y1="3.2" x2="5.3" y2="-3.2" width="0.1016" layer="41"/>
<wire x1="5.3" y1="-3.2" x2="-5.3" y2="-3.2" width="0.1016" layer="41"/>
<wire x1="-5.3" y1="-3.2" x2="-5.3" y2="3.2" width="0.1016" layer="41"/>
<smd name="1" x="-3.7" y="0" dx="2.3" dy="5.6" layer="1"/>
<smd name="2" x="3.7" y="0" dx="2.3" dy="5.6" layer="1"/>
<text x="-2" y="0.7" size="1.27" layer="25" ratio="9">&gt;NAME</text>
<text x="-2" y="-2" size="1.27" layer="27" ratio="9">&gt;VALUE</text>
</package>
<package name="FUSE">
<description>&lt;B&gt;FUSE&lt;/B&gt;&lt;p&gt;
5 x 20 mm</description>
<wire x1="-11.43" y1="1.905" x2="-12.7" y2="1.905" width="0.1524" layer="21"/>
<wire x1="-12.7" y1="-1.905" x2="-12.7" y2="1.905" width="0.1524" layer="21"/>
<wire x1="-12.7" y1="-1.905" x2="-11.43" y2="-1.905" width="0.1524" layer="21"/>
<wire x1="-10.795" y1="2.54" x2="-10.795" y2="3.81" width="0.1524" layer="21"/>
<wire x1="-10.795" y1="3.81" x2="-6.985" y2="3.81" width="0.1524" layer="21"/>
<wire x1="-6.985" y1="2.54" x2="-6.985" y2="3.81" width="0.1524" layer="21"/>
<wire x1="-10.795" y1="-2.54" x2="-10.795" y2="-3.81" width="0.1524" layer="21"/>
<wire x1="-6.985" y1="-3.81" x2="-10.795" y2="-3.81" width="0.1524" layer="21"/>
<wire x1="-6.985" y1="-3.81" x2="-6.985" y2="-2.54" width="0.1524" layer="21"/>
<wire x1="-6.35" y1="1.905" x2="-5.08" y2="1.905" width="0.1524" layer="21"/>
<wire x1="-5.08" y1="1.905" x2="-5.08" y2="1.524" width="0.1524" layer="21"/>
<wire x1="-5.08" y1="-1.905" x2="-6.35" y2="-1.905" width="0.1524" layer="21"/>
<wire x1="6.35" y1="1.905" x2="5.08" y2="1.905" width="0.1524" layer="21"/>
<wire x1="5.08" y1="-1.905" x2="5.08" y2="-1.524" width="0.1524" layer="21"/>
<wire x1="5.08" y1="-1.905" x2="6.35" y2="-1.905" width="0.1524" layer="21"/>
<wire x1="6.985" y1="2.54" x2="6.985" y2="3.81" width="0.1524" layer="21"/>
<wire x1="6.985" y1="3.81" x2="10.795" y2="3.81" width="0.1524" layer="21"/>
<wire x1="10.795" y1="2.54" x2="10.795" y2="3.81" width="0.1524" layer="21"/>
<wire x1="6.985" y1="-2.54" x2="6.985" y2="-3.81" width="0.1524" layer="21"/>
<wire x1="10.795" y1="-3.81" x2="6.985" y2="-3.81" width="0.1524" layer="21"/>
<wire x1="10.795" y1="-3.81" x2="10.795" y2="-2.54" width="0.1524" layer="21"/>
<wire x1="11.43" y1="1.905" x2="12.7" y2="1.905" width="0.1524" layer="21"/>
<wire x1="12.7" y1="1.905" x2="12.7" y2="-1.905" width="0.1524" layer="21"/>
<wire x1="12.7" y1="-1.905" x2="11.43" y2="-1.905" width="0.1524" layer="21"/>
<wire x1="-5.715" y1="2.794" x2="5.715" y2="2.794" width="0.1524" layer="21"/>
<wire x1="-5.715" y1="-2.794" x2="5.715" y2="-2.794" width="0.1524" layer="21"/>
<wire x1="-5.08" y1="1.524" x2="5.08" y2="-1.524" width="0.1524" layer="21"/>
<wire x1="-5.08" y1="1.524" x2="-5.08" y2="-1.905" width="0.1524" layer="21"/>
<wire x1="5.08" y1="-1.524" x2="5.08" y2="1.905" width="0.1524" layer="21"/>
<circle x="0" y="0" radius="0.127" width="0.1524" layer="21"/>
<pad name="1" x="-11.43" y="0" drill="1.3208" shape="long"/>
<pad name="2" x="11.43" y="0" drill="1.3208" shape="long"/>
<text x="-5.08" y="3.302" size="1.778" layer="25" ratio="10">&gt;NAME</text>
<text x="-5.08" y="-5.08" size="1.778" layer="27" ratio="10">&gt;VALUE</text>
<rectangle x1="-12.065" y1="1.905" x2="-10.795" y2="3.175" layer="21"/>
<rectangle x1="-12.065" y1="-3.175" x2="-10.795" y2="-1.905" layer="21"/>
<rectangle x1="-11.43" y1="-2.54" x2="-10.795" y2="2.54" layer="51"/>
<rectangle x1="-6.985" y1="1.905" x2="-5.715" y2="3.175" layer="21"/>
<rectangle x1="-6.985" y1="-3.175" x2="-5.715" y2="-1.905" layer="21"/>
<rectangle x1="-6.985" y1="-2.54" x2="-6.35" y2="2.54" layer="21"/>
<rectangle x1="-10.795" y1="0.762" x2="-6.985" y2="2.54" layer="21"/>
<rectangle x1="-10.795" y1="-2.54" x2="-6.985" y2="-0.762" layer="21"/>
<rectangle x1="5.715" y1="1.905" x2="6.985" y2="3.175" layer="21"/>
<rectangle x1="5.715" y1="-3.175" x2="6.985" y2="-1.905" layer="21"/>
<rectangle x1="6.35" y1="-2.54" x2="6.985" y2="2.54" layer="21"/>
<rectangle x1="10.795" y1="1.905" x2="12.065" y2="3.175" layer="21"/>
<rectangle x1="10.795" y1="-3.175" x2="12.065" y2="-1.905" layer="21"/>
<rectangle x1="10.795" y1="-2.54" x2="11.43" y2="2.54" layer="51"/>
<rectangle x1="6.985" y1="0.762" x2="10.795" y2="2.54" layer="21"/>
<rectangle x1="6.985" y1="-2.54" x2="10.795" y2="-0.762" layer="21"/>
</package>
<package name="RESISTOR_NET">
<description>&lt;b&gt;Chip Resistor Array&lt;/b&gt;&lt;p&gt;
Source: http://www.ctscorp.com/components/Datasheets/CTSChipArrayDs.pdf</description>
<wire x1="-1.55" y1="0.75" x2="-1.45" y2="0.75" width="0.1016" layer="51"/>
<wire x1="-1.45" y1="0.75" x2="-1.3" y2="0.6" width="0.1016" layer="51"/>
<wire x1="-1.3" y1="0.6" x2="-1.1" y2="0.6" width="0.1016" layer="51"/>
<wire x1="-1.1" y1="0.6" x2="-0.95" y2="0.75" width="0.1016" layer="51"/>
<wire x1="-0.95" y1="0.75" x2="-0.65" y2="0.75" width="0.1016" layer="51"/>
<wire x1="-0.15" y1="0.75" x2="0.15" y2="0.75" width="0.1016" layer="51"/>
<wire x1="0.65" y1="0.75" x2="0.95" y2="0.75" width="0.1016" layer="51"/>
<wire x1="1.45" y1="0.75" x2="1.55" y2="0.75" width="0.1016" layer="51"/>
<wire x1="1.55" y1="0.75" x2="1.55" y2="-0.75" width="0.1016" layer="21"/>
<wire x1="1.55" y1="-0.75" x2="1.45" y2="-0.75" width="0.1016" layer="51"/>
<wire x1="0.95" y1="-0.75" x2="0.65" y2="-0.75" width="0.1016" layer="51"/>
<wire x1="0.15" y1="-0.75" x2="-0.15" y2="-0.75" width="0.1016" layer="51"/>
<wire x1="-0.65" y1="-0.75" x2="-0.95" y2="-0.75" width="0.1016" layer="51"/>
<wire x1="-1.45" y1="-0.75" x2="-1.55" y2="-0.75" width="0.1016" layer="51"/>
<wire x1="-1.55" y1="-0.75" x2="-1.55" y2="0.75" width="0.1016" layer="21"/>
<wire x1="-0.65" y1="0.75" x2="-0.5" y2="0.6" width="0.1016" layer="51"/>
<wire x1="-0.5" y1="0.6" x2="-0.3" y2="0.6" width="0.1016" layer="51"/>
<wire x1="-0.3" y1="0.6" x2="-0.15" y2="0.75" width="0.1016" layer="51"/>
<wire x1="0.15" y1="0.75" x2="0.3" y2="0.6" width="0.1016" layer="51"/>
<wire x1="0.3" y1="0.6" x2="0.5" y2="0.6" width="0.1016" layer="51"/>
<wire x1="0.5" y1="0.6" x2="0.65" y2="0.75" width="0.1016" layer="51"/>
<wire x1="0.95" y1="0.75" x2="1.1" y2="0.6" width="0.1016" layer="51"/>
<wire x1="1.1" y1="0.6" x2="1.3" y2="0.6" width="0.1016" layer="51"/>
<wire x1="1.3" y1="0.6" x2="1.45" y2="0.75" width="0.1016" layer="51"/>
<wire x1="1.45" y1="-0.75" x2="1.3" y2="-0.6" width="0.1016" layer="51"/>
<wire x1="1.3" y1="-0.6" x2="1.1" y2="-0.6" width="0.1016" layer="51"/>
<wire x1="1.1" y1="-0.6" x2="0.95" y2="-0.75" width="0.1016" layer="51"/>
<wire x1="0.65" y1="-0.75" x2="0.5" y2="-0.6" width="0.1016" layer="51"/>
<wire x1="0.5" y1="-0.6" x2="0.3" y2="-0.6" width="0.1016" layer="51"/>
<wire x1="0.3" y1="-0.6" x2="0.15" y2="-0.75" width="0.1016" layer="51"/>
<wire x1="-0.15" y1="-0.75" x2="-0.3" y2="-0.6" width="0.1016" layer="51"/>
<wire x1="-0.3" y1="-0.6" x2="-0.5" y2="-0.6" width="0.1016" layer="51"/>
<wire x1="-0.5" y1="-0.6" x2="-0.65" y2="-0.75" width="0.1016" layer="51"/>
<wire x1="-0.95" y1="-0.75" x2="-1.1" y2="-0.6" width="0.1016" layer="51"/>
<wire x1="-1.1" y1="-0.6" x2="-1.3" y2="-0.6" width="0.1016" layer="51"/>
<wire x1="-1.3" y1="-0.6" x2="-1.45" y2="-0.75" width="0.1016" layer="51"/>
<wire x1="1.55" y1="-0.45" x2="-1.55" y2="-0.45" width="0.1016" layer="51"/>
<wire x1="-1.55" y1="0.45" x2="1.55" y2="0.45" width="0.1016" layer="51"/>
<rectangle x1="-1.5" y1="-1.3" x2="-0.9" y2="-0.3" layer="29"/>
<rectangle x1="-0.7" y1="-1.3" x2="-0.1" y2="-0.3" layer="29"/>
<rectangle x1="0.1" y1="-1.3" x2="0.7" y2="-0.3" layer="29"/>
<rectangle x1="0.9" y1="-1.3" x2="1.5" y2="-0.3" layer="29"/>
<rectangle x1="0.9" y1="0.3" x2="1.5" y2="1.3" layer="29" rot="R180"/>
<rectangle x1="0.1" y1="0.3" x2="0.7" y2="1.3" layer="29" rot="R180"/>
<rectangle x1="-0.7" y1="0.3" x2="-0.1" y2="1.3" layer="29" rot="R180"/>
<rectangle x1="-1.5" y1="0.3" x2="-0.9" y2="1.3" layer="29" rot="R180"/>
<smd name="1" x="-1.2" y="-0.8" dx="0.5" dy="0.9" layer="1" stop="no"/>
<smd name="2" x="-0.4" y="-0.8" dx="0.5" dy="0.9" layer="1" stop="no"/>
<smd name="3" x="0.4" y="-0.8" dx="0.5" dy="0.9" layer="1" stop="no"/>
<smd name="4" x="1.2" y="-0.8" dx="0.5" dy="0.9" layer="1" stop="no"/>
<smd name="5" x="1.2" y="0.8" dx="0.5" dy="0.9" layer="1" stop="no"/>
<smd name="6" x="0.4" y="0.8" dx="0.5" dy="0.9" layer="1" stop="no"/>
<smd name="7" x="-0.4" y="0.8" dx="0.5" dy="0.9" layer="1" stop="no"/>
<smd name="8" x="-1.2" y="0.8" dx="0.5" dy="0.9" layer="1" stop="no"/>
<text x="-1.778" y="1.524" size="1.27" layer="25">&gt;NAME</text>
<text x="-1.778" y="-2.794" size="1.27" layer="27">&gt;VALUE</text>
<polygon width="0.1016" layer="51">
<vertex x="-0.6" y="-0.675"/>
<vertex x="-0.6" y="-0.45"/>
<vertex x="-0.2" y="-0.45"/>
<vertex x="-0.2" y="-0.675"/>
<vertex x="-0.3" y="-0.575"/>
<vertex x="-0.5" y="-0.575"/>
</polygon>
<polygon width="0.1016" layer="51">
<vertex x="-1.4" y="-0.675"/>
<vertex x="-1.4" y="-0.45"/>
<vertex x="-1" y="-0.45"/>
<vertex x="-1" y="-0.675"/>
<vertex x="-1.1" y="-0.575"/>
<vertex x="-1.3" y="-0.575"/>
</polygon>
<polygon width="0.1016" layer="51">
<vertex x="0.2" y="-0.675"/>
<vertex x="0.2" y="-0.45"/>
<vertex x="0.6" y="-0.45"/>
<vertex x="0.6" y="-0.675"/>
<vertex x="0.5" y="-0.575"/>
<vertex x="0.3" y="-0.575"/>
</polygon>
<polygon width="0.1016" layer="51">
<vertex x="1" y="-0.675"/>
<vertex x="1" y="-0.45"/>
<vertex x="1.4" y="-0.45"/>
<vertex x="1.4" y="-0.675"/>
<vertex x="1.3" y="-0.575"/>
<vertex x="1.1" y="-0.575"/>
</polygon>
<polygon width="0.1016" layer="51">
<vertex x="1.4" y="0.675"/>
<vertex x="1.4" y="0.45"/>
<vertex x="1" y="0.45"/>
<vertex x="1" y="0.675"/>
<vertex x="1.1" y="0.575"/>
<vertex x="1.3" y="0.575"/>
</polygon>
<polygon width="0.1016" layer="51">
<vertex x="0.6" y="0.675"/>
<vertex x="0.6" y="0.45"/>
<vertex x="0.2" y="0.45"/>
<vertex x="0.2" y="0.675"/>
<vertex x="0.3" y="0.575"/>
<vertex x="0.5" y="0.575"/>
</polygon>
<polygon width="0.1016" layer="51">
<vertex x="-0.2" y="0.675"/>
<vertex x="-0.2" y="0.45"/>
<vertex x="-0.6" y="0.45"/>
<vertex x="-0.6" y="0.675"/>
<vertex x="-0.5" y="0.575"/>
<vertex x="-0.3" y="0.575"/>
</polygon>
<polygon width="0.1016" layer="51">
<vertex x="-1" y="0.675"/>
<vertex x="-1" y="0.45"/>
<vertex x="-1.4" y="0.45"/>
<vertex x="-1.4" y="0.675"/>
<vertex x="-1.3" y="0.575"/>
<vertex x="-1.1" y="0.575"/>
</polygon>
</package>
<package name="RN-9">
<description>&lt;b&gt;RESISTOR NETWORK&lt;/b&gt;</description>
<wire x1="11.43" y1="-1.27" x2="11.43" y2="1.27" width="0.1524" layer="21"/>
<wire x1="-11.43" y1="1.27" x2="-11.43" y2="-1.27" width="0.1524" layer="21"/>
<wire x1="-11.43" y1="-1.27" x2="-10.795" y2="-0.635" width="0.1524" layer="21"/>
<wire x1="-11.43" y1="1.27" x2="-10.795" y2="0.635" width="0.1524" layer="21"/>
<wire x1="-8.89" y1="1.27" x2="-9.525" y2="0.635" width="0.1524" layer="21"/>
<wire x1="11.43" y1="1.27" x2="-8.89" y2="1.27" width="0.1524" layer="21"/>
<wire x1="-8.89" y1="-1.27" x2="-9.525" y2="-0.635" width="0.1524" layer="21"/>
<wire x1="-11.43" y1="-1.27" x2="-8.89" y2="-1.27" width="0.1524" layer="21"/>
<wire x1="-8.89" y1="1.27" x2="-8.89" y2="-1.27" width="0.1524" layer="21"/>
<wire x1="-8.89" y1="1.27" x2="-11.43" y2="1.27" width="0.1524" layer="21"/>
<wire x1="-8.89" y1="-1.27" x2="11.43" y2="-1.27" width="0.1524" layer="21"/>
<wire x1="-10.7696" y1="0.6096" x2="-9.5504" y2="-0.6096" width="0.1524" layer="51"/>
<wire x1="-10.7696" y1="-0.6096" x2="-9.5504" y2="0.6096" width="0.1524" layer="51"/>
<pad name="1" x="-10.16" y="0" drill="0.8128" shape="long" rot="R90"/>
<pad name="2" x="-7.62" y="0" drill="0.8128" shape="long" rot="R90"/>
<pad name="3" x="-5.08" y="0" drill="0.8128" shape="long" rot="R90"/>
<pad name="4" x="-2.54" y="0" drill="0.8128" shape="long" rot="R90"/>
<pad name="5" x="0" y="0" drill="0.8128" shape="long" rot="R90"/>
<pad name="6" x="2.54" y="0" drill="0.8128" shape="long" rot="R90"/>
<pad name="7" x="5.08" y="0" drill="0.8128" shape="long" rot="R90"/>
<pad name="8" x="7.62" y="0" drill="0.8128" shape="long" rot="R90"/>
<pad name="9" x="10.16" y="0" drill="0.8128" shape="long" rot="R90"/>
<text x="-8.89" y="-3.175" size="1.27" layer="27" ratio="10">&gt;VALUE</text>
<text x="-8.89" y="1.905" size="1.27" layer="25" ratio="10">&gt;NAME</text>
</package>
<package name="RTRIM3006P">
<description>&lt;b&gt;Trimm resistor&lt;/b&gt; BOURNS&lt;p&gt;</description>
<wire x1="-10.6" y1="2.25" x2="-10.6" y2="-2.25" width="0.254" layer="21"/>
<wire x1="-10.6" y1="-2.25" x2="8.25" y2="-2.25" width="0.254" layer="21"/>
<wire x1="8.25" y1="-2.25" x2="8.25" y2="2.25" width="0.254" layer="21"/>
<wire x1="8.25" y1="2.25" x2="-10.6" y2="2.25" width="0.254" layer="21"/>
<wire x1="8.35" y1="1.35" x2="9.8" y2="1.35" width="0.1524" layer="21"/>
<wire x1="9.8" y1="1.35" x2="9.8" y2="0.35" width="0.1524" layer="21"/>
<wire x1="9.8" y1="0.35" x2="9.3" y2="0.35" width="0.1524" layer="21"/>
<wire x1="9.3" y1="0.35" x2="9.3" y2="-0.35" width="0.1524" layer="21"/>
<wire x1="9.3" y1="-0.35" x2="9.8" y2="-0.35" width="0.1524" layer="21"/>
<wire x1="9.8" y1="-0.35" x2="9.8" y2="-1.35" width="0.1524" layer="21"/>
<wire x1="9.8" y1="-1.35" x2="8.35" y2="-1.35" width="0.1524" layer="21"/>
<pad name="1" x="-7.62" y="1.27" drill="0.6096"/>
<pad name="2" x="0" y="-1.27" drill="0.6096"/>
<pad name="3" x="5.08" y="1.27" drill="0.6096"/>
<text x="-10.7" y="2.7" size="1.27" layer="25">&gt;NAME</text>
<text x="-10.05" y="-1.65" size="1.27" layer="27">&gt;VALUE</text>
</package>
<package name="3386P">
<description>3/8" Square Trimmer</description>
<wire x1="4.699" y1="-4.6482" x2="4.699" y2="4.7498" width="0.1778" layer="21"/>
<wire x1="4.699" y1="4.7498" x2="-4.699" y2="4.7498" width="0.1778" layer="21"/>
<wire x1="-4.699" y1="4.7498" x2="-4.699" y2="-4.6482" width="0.1778" layer="21"/>
<wire x1="0.635" y1="-0.635" x2="-0.635" y2="0.635" width="0.6096" layer="51"/>
<wire x1="-4.699" y1="-4.6482" x2="-3.81" y2="-4.6482" width="0.1778" layer="21"/>
<wire x1="-3.81" y1="-4.6482" x2="-3.81" y2="-4.1275" width="0.1778" layer="21"/>
<wire x1="-3.81" y1="-4.1275" x2="3.81" y2="-4.1275" width="0.1778" layer="21"/>
<wire x1="3.81" y1="-4.1275" x2="3.81" y2="-4.6482" width="0.1778" layer="21"/>
<wire x1="4.699" y1="-4.6482" x2="3.81" y2="-4.6482" width="0.1778" layer="21"/>
<wire x1="2.54" y1="3.81" x2="2.413" y2="3.683" width="0.127" layer="51"/>
<wire x1="2.54" y1="3.81" x2="2.413" y2="3.937" width="0.127" layer="51"/>
<wire x1="2.286" y1="3.556" x2="2.286" y2="4.064" width="0.127" layer="51"/>
<wire x1="2.286" y1="3.556" x2="2.159" y2="3.429" width="0.127" layer="51"/>
<wire x1="2.286" y1="4.064" x2="2.159" y2="4.191" width="0.127" layer="51"/>
<wire x1="2.413" y1="3.683" x2="2.413" y2="3.937" width="0.127" layer="51"/>
<wire x1="2.413" y1="3.683" x2="2.286" y2="3.556" width="0.127" layer="51"/>
<wire x1="2.413" y1="3.937" x2="2.286" y2="4.064" width="0.127" layer="51"/>
<wire x1="2.54" y1="3.81" x2="2.159" y2="3.81" width="0.127" layer="51"/>
<wire x1="2.159" y1="3.81" x2="-2.54" y2="3.81" width="0.127" layer="51"/>
<wire x1="2.159" y1="3.81" x2="2.159" y2="4.191" width="0.127" layer="51"/>
<wire x1="2.159" y1="3.429" x2="2.159" y2="3.81" width="0.127" layer="51"/>
<wire x1="2.032" y1="3.302" x2="2.159" y2="3.429" width="0.127" layer="51"/>
<wire x1="2.159" y1="4.191" x2="2.032" y2="4.318" width="0.127" layer="51"/>
<wire x1="2.032" y1="4.318" x2="2.032" y2="3.302" width="0.127" layer="51"/>
<circle x="0" y="0" radius="1.27" width="0.127" layer="51"/>
<circle x="0" y="0" radius="1.905" width="0.127" layer="51"/>
<pad name="1" x="-2.54" y="0" drill="0.8128" diameter="1.6764" shape="octagon"/>
<pad name="3" x="2.54" y="0" drill="0.8128" diameter="1.6764" shape="octagon"/>
<pad name="2" x="0" y="-2.54" drill="0.8128" diameter="1.6764" shape="octagon"/>
<text x="-4.445" y="5.3975" size="1.27" layer="25" ratio="12">&gt;NAME</text>
<text x="6.6675" y="-4.445" size="1.27" layer="27" ratio="12" rot="R90">&gt;VALUE</text>
<text x="2.921" y="3.175" size="1.27" layer="51" ratio="10">3</text>
<text x="-2.8575" y="1.27" size="1.016" layer="51" ratio="12">1</text>
<text x="-1.905" y="-3.175" size="1.016" layer="51" ratio="12">2</text>
<text x="2.2225" y="1.27" size="1.016" layer="51" ratio="12">3</text>
</package>
<package name="0603_MP">
<wire x1="-0.432" y1="-0.306" x2="0.432" y2="-0.306" width="0.1016" layer="51"/>
<wire x1="0.432" y1="0.306" x2="-0.432" y2="0.306" width="0.1016" layer="51"/>
<wire x1="0" y1="0.254" x2="0" y2="-0.254" width="0.2032" layer="21"/>
<smd name="1" x="-0.762" y="0" dx="0.8" dy="0.8" layer="1"/>
<smd name="2" x="0.762" y="0" dx="0.8" dy="0.8" layer="1"/>
<text x="-0.9525" y="0.635" size="0.8128" layer="25" ratio="18">&gt;NAME</text>
<text x="-0.9525" y="-0.9525" size="0.4064" layer="27" ratio="10">&gt;VALUE</text>
<rectangle x1="0.4318" y1="-0.4" x2="0.8" y2="0.4" layer="51"/>
<rectangle x1="-0.8" y1="-0.4" x2="-0.4318" y2="0.4" layer="51"/>
<rectangle x1="-0.1999" y1="-0.25" x2="0.1999" y2="0.25" layer="35"/>
</package>
<package name="0805_MP">
<wire x1="-0.51" y1="0.535" x2="0.51" y2="0.535" width="0.1016" layer="51"/>
<wire x1="-0.51" y1="-0.535" x2="0.51" y2="-0.535" width="0.1016" layer="51"/>
<wire x1="0" y1="0.508" x2="0" y2="-0.508" width="0.2032" layer="21"/>
<smd name="1" x="-1.016" y="0" dx="1.2" dy="1.3" layer="1"/>
<smd name="2" x="1.016" y="0" dx="1.2" dy="1.3" layer="1"/>
<text x="-1.5875" y="0.9525" size="0.8128" layer="25" ratio="18">&gt;NAME</text>
<text x="-1.5875" y="-1.27" size="0.4064" layer="27" ratio="10">&gt;VALUE</text>
<rectangle x1="0.4064" y1="-0.65" x2="1" y2="0.65" layer="51"/>
<rectangle x1="-1" y1="-0.65" x2="-0.4168" y2="0.65" layer="51"/>
<rectangle x1="-0.1999" y1="-0.5001" x2="0.1999" y2="0.5001" layer="35"/>
</package>
<package name="0402_MP">
<wire x1="-0.245" y1="0.174" x2="0.245" y2="0.174" width="0.1016" layer="51"/>
<wire x1="0.245" y1="-0.174" x2="-0.245" y2="-0.174" width="0.1016" layer="51"/>
<wire x1="0" y1="0.127" x2="0" y2="-0.127" width="0.2032" layer="21"/>
<smd name="1" x="-0.508" y="0" dx="0.5" dy="0.5" layer="1"/>
<smd name="2" x="0.508" y="0" dx="0.5" dy="0.5" layer="1"/>
<text x="-0.635" y="0.4763" size="0.6096" layer="25" ratio="18">&gt;NAME</text>
<text x="-0.635" y="-0.7938" size="0.4064" layer="27" ratio="10">&gt;VALUE</text>
<rectangle x1="-0.1" y1="-0.2" x2="0.1" y2="0.2" layer="35"/>
<rectangle x1="-0.5" y1="-0.25" x2="-0.254" y2="0.25" layer="51"/>
<rectangle x1="0.2588" y1="-0.25" x2="0.5" y2="0.25" layer="51"/>
</package>
</packages>
<symbols>
<symbol name="C_POL">
<wire x1="-1.524" y1="-0.889" x2="1.524" y2="-0.889" width="0.254" layer="94"/>
<wire x1="1.524" y1="-0.889" x2="1.524" y2="0" width="0.254" layer="94"/>
<wire x1="-1.524" y1="0" x2="-1.524" y2="-0.889" width="0.254" layer="94"/>
<wire x1="-1.524" y1="0" x2="1.524" y2="0" width="0.254" layer="94"/>
<text x="1.143" y="0.4826" size="1.778" layer="95">&gt;NAME</text>
<text x="-0.5842" y="0.4064" size="1.27" layer="94" rot="R90">+</text>
<text x="1.143" y="-4.5974" size="1.778" layer="96">&gt;VALUE</text>
<rectangle x1="-1.651" y1="-2.54" x2="1.651" y2="-1.651" layer="94"/>
<pin name="-" x="0" y="-5.08" visible="off" length="short" direction="pas" rot="R90"/>
<pin name="+" x="0" y="2.54" visible="off" length="short" direction="pas" rot="R270"/>
</symbol>
<symbol name="C_EU">
<wire x1="0" y1="0" x2="0" y2="-0.508" width="0.1524" layer="94"/>
<wire x1="0" y1="-2.54" x2="0" y2="-2.032" width="0.1524" layer="94"/>
<text x="1.524" y="0.381" size="1.778" layer="95">&gt;NAME</text>
<text x="1.524" y="-4.699" size="1.778" layer="96">&gt;VALUE</text>
<rectangle x1="-2.032" y1="-2.032" x2="2.032" y2="-1.524" layer="94"/>
<rectangle x1="-2.032" y1="-1.016" x2="2.032" y2="-0.508" layer="94"/>
<pin name="1" x="0" y="2.54" visible="off" length="short" direction="pas" swaplevel="1" rot="R270"/>
<pin name="2" x="0" y="-5.08" visible="off" length="short" direction="pas" swaplevel="1" rot="R90"/>
</symbol>
<symbol name="R_EU">
<wire x1="-2.54" y1="-0.889" x2="2.54" y2="-0.889" width="0.254" layer="94"/>
<wire x1="2.54" y1="0.889" x2="-2.54" y2="0.889" width="0.254" layer="94"/>
<wire x1="2.54" y1="-0.889" x2="2.54" y2="0.889" width="0.254" layer="94"/>
<wire x1="-2.54" y1="-0.889" x2="-2.54" y2="0.889" width="0.254" layer="94"/>
<text x="-3.81" y="1.4986" size="1.778" layer="95">&gt;NAME</text>
<text x="-3.81" y="-3.302" size="1.778" layer="96">&gt;VALUE</text>
<pin name="2" x="5.08" y="0" visible="off" length="short" direction="pas" swaplevel="1" rot="R180"/>
<pin name="1" x="-5.08" y="0" visible="off" length="short" direction="pas" swaplevel="1"/>
</symbol>
<symbol name="R_TRIMM">
<wire x1="0.762" y1="2.54" x2="0" y2="2.54" width="0.254" layer="94"/>
<wire x1="-0.762" y1="2.54" x2="-0.762" y2="-2.54" width="0.254" layer="94"/>
<wire x1="0.762" y1="-2.54" x2="0.762" y2="2.54" width="0.254" layer="94"/>
<wire x1="2.54" y1="0" x2="1.651" y2="0" width="0.1524" layer="94"/>
<wire x1="1.651" y1="0" x2="-1.8796" y2="1.7526" width="0.1524" layer="94"/>
<wire x1="0" y1="2.54" x2="0" y2="5.08" width="0.1524" layer="94"/>
<wire x1="0" y1="2.54" x2="-0.762" y2="2.54" width="0.254" layer="94"/>
<wire x1="-0.762" y1="-2.54" x2="0.762" y2="-2.54" width="0.254" layer="94"/>
<wire x1="-2.286" y1="1.27" x2="-1.651" y2="2.413" width="0.254" layer="94"/>
<wire x1="-2.54" y1="-2.54" x2="-2.54" y2="-0.508" width="0.1524" layer="94"/>
<wire x1="-2.54" y1="-0.508" x2="-3.048" y2="-1.524" width="0.1524" layer="94"/>
<wire x1="-2.54" y1="-0.508" x2="-2.032" y2="-1.524" width="0.1524" layer="94"/>
<text x="-5.969" y="-3.81" size="1.778" layer="95" rot="R90">&gt;NAME</text>
<text x="-3.81" y="-3.81" size="1.778" layer="96" rot="R90">&gt;VALUE</text>
<pin name="A" x="0" y="-5.08" visible="pad" length="short" direction="pas" rot="R90"/>
<pin name="E" x="0" y="5.08" visible="pad" length="short" direction="pas" rot="R270"/>
<pin name="S" x="5.08" y="0" visible="pad" length="short" direction="pas" rot="R180"/>
</symbol>
<symbol name="CRYSTAL">
<wire x1="1.016" y1="0" x2="2.54" y2="0" width="0.1524" layer="94"/>
<wire x1="-2.54" y1="0" x2="-1.016" y2="0" width="0.1524" layer="94"/>
<wire x1="-0.381" y1="1.524" x2="-0.381" y2="-1.524" width="0.254" layer="94"/>
<wire x1="-0.381" y1="-1.524" x2="0.381" y2="-1.524" width="0.254" layer="94"/>
<wire x1="0.381" y1="-1.524" x2="0.381" y2="1.524" width="0.254" layer="94"/>
<wire x1="0.381" y1="1.524" x2="-0.381" y2="1.524" width="0.254" layer="94"/>
<wire x1="1.016" y1="1.778" x2="1.016" y2="-1.778" width="0.254" layer="94"/>
<wire x1="-1.016" y1="1.778" x2="-1.016" y2="-1.778" width="0.254" layer="94"/>
<text x="2.54" y="1.016" size="1.778" layer="95">&gt;NAME</text>
<text x="2.54" y="-2.54" size="1.778" layer="96">&gt;VALUE</text>
<text x="-2.159" y="-1.143" size="0.8636" layer="93">1</text>
<text x="1.524" y="-1.143" size="0.8636" layer="93">2</text>
<pin name="2" x="2.54" y="0" visible="off" length="point" direction="pas" swaplevel="1" rot="R180"/>
<pin name="1" x="-2.54" y="0" visible="off" length="point" direction="pas" swaplevel="1"/>
</symbol>
<symbol name="L_EU">
<wire x1="-5.08" y1="0" x2="-3.81" y2="1.27" width="0.254" layer="94" curve="-90" cap="flat"/>
<wire x1="-2.54" y1="0" x2="-3.81" y2="1.27" width="0.254" layer="94" curve="90" cap="flat"/>
<wire x1="-2.54" y1="0" x2="-1.27" y2="1.27" width="0.254" layer="94" curve="-90" cap="flat"/>
<wire x1="0" y1="0" x2="-1.27" y2="1.27" width="0.254" layer="94" curve="90" cap="flat"/>
<wire x1="0" y1="0" x2="1.27" y2="1.27" width="0.254" layer="94" curve="-90" cap="flat"/>
<wire x1="2.54" y1="0" x2="1.27" y2="1.27" width="0.254" layer="94" curve="90" cap="flat"/>
<wire x1="2.54" y1="0" x2="3.81" y2="1.27" width="0.254" layer="94" curve="-90" cap="flat"/>
<wire x1="5.08" y1="0" x2="3.81" y2="1.27" width="0.254" layer="94" curve="90" cap="flat"/>
<text x="-5.08" y="2.54" size="1.27" layer="95">&gt;NAME</text>
<text x="-5.08" y="-2.54" size="1.27" layer="96">&gt;VALUE</text>
<pin name="1" x="-7.62" y="0" visible="off" length="short" direction="pas" swaplevel="1"/>
<pin name="2" x="7.62" y="0" visible="off" length="short" direction="pas" swaplevel="1" rot="R180"/>
</symbol>
<symbol name="OSCILLATOR">
<wire x1="-7.62" y1="-5.08" x2="-7.62" y2="5.08" width="0.254" layer="94"/>
<wire x1="-7.62" y1="5.08" x2="7.62" y2="5.08" width="0.254" layer="94"/>
<wire x1="7.62" y1="5.08" x2="7.62" y2="-5.08" width="0.254" layer="94"/>
<wire x1="7.62" y1="-5.08" x2="-7.62" y2="-5.08" width="0.254" layer="94"/>
<text x="-7.62" y="5.842" size="1.27" layer="95">&gt;Name</text>
<text x="-7.62" y="-7.366" size="1.27" layer="96">&gt;Value</text>
<pin name="EN" x="-12.7" y="-2.54" length="middle"/>
<pin name="GND" x="12.7" y="-2.54" length="middle" rot="R180"/>
<pin name="OUT" x="12.7" y="2.54" length="middle" rot="R180"/>
<pin name="VCC" x="-12.7" y="2.54" length="middle"/>
</symbol>
<symbol name="PTC">
<wire x1="2.54" y1="0.889" x2="-2.54" y2="0.889" width="0.254" layer="94"/>
<wire x1="-2.54" y1="-0.889" x2="2.54" y2="-0.889" width="0.254" layer="94"/>
<wire x1="-2.54" y1="0.889" x2="-2.54" y2="-0.889" width="0.254" layer="94"/>
<wire x1="2.54" y1="0.889" x2="2.54" y2="-0.889" width="0.254" layer="94"/>
<wire x1="1.27" y1="1.778" x2="-1.27" y2="-1.778" width="0.1524" layer="94"/>
<wire x1="-1.27" y1="-1.778" x2="-2.286" y2="-1.778" width="0.1524" layer="94"/>
<wire x1="2.54" y1="2.54" x2="2.54" y2="1.27" width="0.1524" layer="94"/>
<wire x1="3.302" y1="2.54" x2="3.302" y2="1.27" width="0.1524" layer="94"/>
<wire x1="-1.0668" y1="2.1336" x2="-0.762" y2="2.159" width="0.1524" layer="94" curve="-143.401004"/>
<wire x1="-0.762" y1="2.159" x2="-0.635" y2="1.651" width="0.1524" layer="94" curve="16.281888"/>
<wire x1="-0.635" y1="1.651" x2="-0.0508" y2="1.5494" width="0.1524" layer="94" curve="135.668554"/>
<wire x1="-0.0508" y1="1.5494" x2="-0.127" y2="2.921" width="0.1524" layer="94" curve="65.705733"/>
<wire x1="-0.127" y1="2.921" x2="-0.381" y2="2.794" width="0.1524" layer="94" curve="139.383116"/>
<wire x1="-0.381" y1="2.794" x2="0.381" y2="2.286" width="0.1524" layer="94" curve="100.176187"/>
<pin name="1" x="5.08" y="0" visible="off" length="short" direction="pas" swaplevel="1" rot="R180"/>
<pin name="2" x="-5.08" y="0" visible="off" length="short" direction="pas" swaplevel="1"/>
<text x="-3.81" y="3.81" size="1.27" layer="95">&gt;NAME</text>
<text x="-3.81" y="-3.81" size="1.27" layer="96">&gt;VALUE</text>
<polygon width="0.1524" layer="94">
<vertex x="2.54" y="2.54"/>
<vertex x="2.794" y="1.778"/>
<vertex x="2.286" y="1.778"/>
</polygon>
<polygon width="0.1524" layer="94">
<vertex x="3.302" y="2.54"/>
<vertex x="3.556" y="1.778"/>
<vertex x="3.048" y="1.778"/>
</polygon>
</symbol>
<symbol name="FUSE">
<wire x1="-5.08" y1="0" x2="-3.556" y2="1.524" width="0.254" layer="94"/>
<wire x1="0" y1="-1.524" x2="-2.54" y2="1.524" width="0.254" layer="94"/>
<wire x1="0.889" y1="-1.4986" x2="2.4892" y2="0" width="0.254" layer="94"/>
<wire x1="-3.5992" y1="1.4912" x2="-3.048" y2="1.7272" width="0.254" layer="94" curve="-46.337037" cap="flat"/>
<wire x1="-3.048" y1="1.7272" x2="-2.496" y2="1.491" width="0.254" layer="94" curve="-46.403624" cap="flat"/>
<wire x1="0.4572" y1="-1.778" x2="0.8965" y2="-1.4765" width="0.254" layer="94" curve="63.169357" cap="flat"/>
<wire x1="-0.0178" y1="-1.508" x2="0.4572" y2="-1.7778" width="0.254" layer="94" curve="64.986119" cap="flat"/>
<text x="-5.08" y="2.54" size="1.778" layer="95">&gt;NAME</text>
<text x="-5.08" y="-3.81" size="1.778" layer="96">&gt;VALUE</text>
<pin name="1" x="-7.62" y="0" visible="off" length="short" direction="pas" function="dot" swaplevel="1"/>
<pin name="2" x="5.08" y="0" visible="off" length="short" direction="pas" function="dot" swaplevel="1" rot="R180"/>
</symbol>
<symbol name="R_RN4">
<wire x1="-1.27" y1="1.778" x2="3.81" y2="1.778" width="0.254" layer="94"/>
<wire x1="3.81" y1="3.302" x2="-1.27" y2="3.302" width="0.254" layer="94"/>
<wire x1="-1.27" y1="3.302" x2="-1.27" y2="2.54" width="0.254" layer="94"/>
<wire x1="-1.27" y1="2.54" x2="-2.54" y2="2.54" width="0.1524" layer="94"/>
<wire x1="-1.27" y1="2.54" x2="-1.27" y2="1.778" width="0.254" layer="94"/>
<wire x1="3.81" y1="1.778" x2="3.81" y2="2.54" width="0.254" layer="94"/>
<wire x1="3.81" y1="2.54" x2="3.81" y2="3.302" width="0.254" layer="94"/>
<wire x1="5.08" y1="0" x2="3.81" y2="0" width="0.1524" layer="94"/>
<wire x1="5.08" y1="-2.54" x2="3.81" y2="-2.54" width="0.1524" layer="94"/>
<wire x1="5.08" y1="-5.08" x2="3.81" y2="-5.08" width="0.1524" layer="94"/>
<wire x1="-2.54" y1="-5.08" x2="-1.27" y2="-5.08" width="0.1524" layer="94"/>
<wire x1="-2.54" y1="-2.54" x2="-1.27" y2="-2.54" width="0.1524" layer="94"/>
<wire x1="-2.54" y1="0" x2="-1.27" y2="0" width="0.1524" layer="94"/>
<wire x1="-1.27" y1="0" x2="-1.27" y2="-0.762" width="0.254" layer="94"/>
<wire x1="-1.27" y1="0.762" x2="-1.27" y2="0" width="0.254" layer="94"/>
<wire x1="3.81" y1="-0.762" x2="3.81" y2="0" width="0.254" layer="94"/>
<wire x1="3.81" y1="0" x2="3.81" y2="0.762" width="0.254" layer="94"/>
<wire x1="-1.27" y1="-0.762" x2="3.81" y2="-0.762" width="0.254" layer="94"/>
<wire x1="3.81" y1="0.762" x2="-1.27" y2="0.762" width="0.254" layer="94"/>
<wire x1="-1.27" y1="-3.302" x2="3.81" y2="-3.302" width="0.254" layer="94"/>
<wire x1="-1.27" y1="-5.842" x2="3.81" y2="-5.842" width="0.254" layer="94"/>
<wire x1="3.81" y1="-1.778" x2="-1.27" y2="-1.778" width="0.254" layer="94"/>
<wire x1="3.81" y1="-4.318" x2="-1.27" y2="-4.318" width="0.254" layer="94"/>
<wire x1="3.81" y1="-3.302" x2="3.81" y2="-2.54" width="0.254" layer="94"/>
<wire x1="3.81" y1="-5.842" x2="3.81" y2="-5.08" width="0.254" layer="94"/>
<wire x1="3.81" y1="-2.54" x2="3.81" y2="-1.778" width="0.254" layer="94"/>
<wire x1="3.81" y1="-5.08" x2="3.81" y2="-4.318" width="0.254" layer="94"/>
<wire x1="-1.27" y1="-2.54" x2="-1.27" y2="-3.302" width="0.254" layer="94"/>
<wire x1="-1.27" y1="-5.08" x2="-1.27" y2="-5.842" width="0.254" layer="94"/>
<wire x1="-1.27" y1="-1.778" x2="-1.27" y2="-2.54" width="0.254" layer="94"/>
<wire x1="-1.27" y1="-4.318" x2="-1.27" y2="-5.08" width="0.254" layer="94"/>
<wire x1="5.08" y1="4.318" x2="-2.54" y2="4.318" width="0.4064" layer="94"/>
<wire x1="5.08" y1="-6.858" x2="-2.54" y2="-6.858" width="0.4064" layer="94"/>
<wire x1="-2.54" y1="4.318" x2="-2.54" y2="-6.858" width="0.4064" layer="94"/>
<wire x1="3.81" y1="2.54" x2="5.08" y2="2.54" width="0.1524" layer="94"/>
<wire x1="5.08" y1="4.318" x2="5.08" y2="-6.858" width="0.4064" layer="94"/>
<pin name="1" x="-5.08" y="2.54" visible="pad" length="short" direction="pas" swaplevel="1"/>
<pin name="2" x="-5.08" y="0" visible="pad" length="short" direction="pas" swaplevel="2"/>
<pin name="3" x="-5.08" y="-2.54" visible="pad" length="short" direction="pas" swaplevel="3"/>
<pin name="4" x="-5.08" y="-5.08" visible="pad" length="short" direction="pas" swaplevel="4"/>
<pin name="5" x="7.62" y="-5.08" visible="pad" length="short" direction="pas" swaplevel="4" rot="R180"/>
<pin name="6" x="7.62" y="-2.54" visible="pad" length="short" direction="pas" swaplevel="3" rot="R180"/>
<pin name="7" x="7.62" y="0" visible="pad" length="short" direction="pas" swaplevel="2" rot="R180"/>
<pin name="8" x="7.62" y="2.54" visible="pad" length="short" direction="pas" swaplevel="1" rot="R180"/>
<text x="-1.905" y="5.08" size="1.778" layer="95">&gt;NAME</text>
<text x="-2.54" y="-9.398" size="1.778" layer="96">&gt;VALUE</text>
</symbol>
<symbol name="RN08">
<wire x1="-2.54" y1="1.27" x2="-2.54" y2="-1.27" width="0.254" layer="94"/>
<wire x1="-2.54" y1="-1.27" x2="2.54" y2="-1.27" width="0.254" layer="94"/>
<wire x1="2.54" y1="-1.27" x2="2.54" y2="1.27" width="0.254" layer="94"/>
<wire x1="2.54" y1="1.27" x2="-2.54" y2="1.27" width="0.254" layer="94"/>
<text x="-2.54" y="2.54" size="1.778" layer="95">&gt;NAME</text>
<text x="-2.54" y="-4.318" size="1.778" layer="96">&gt;VALUE</text>
<pin name="1" x="-5.08" y="0" visible="pad" length="short" direction="pas"/>
<pin name="2" x="5.08" y="0" visible="pad" length="short" direction="pas" swaplevel="1" rot="R180"/>
<pin name="3" x="10.16" y="0" visible="pad" length="short" direction="pas" swaplevel="1" rot="R180"/>
<pin name="4" x="15.24" y="0" visible="pad" length="short" direction="pas" swaplevel="1" rot="R180"/>
<pin name="5" x="20.32" y="0" visible="pad" length="short" direction="pas" swaplevel="1" rot="R180"/>
<pin name="6" x="25.4" y="0" visible="pad" length="short" direction="pas" swaplevel="1" rot="R180"/>
<pin name="7" x="30.48" y="0" visible="pad" length="short" direction="pas" swaplevel="1" rot="R180"/>
<pin name="8" x="35.56" y="0" visible="pad" length="short" direction="pas" swaplevel="1" rot="R180"/>
<pin name="9" x="40.64" y="0" visible="pad" length="short" direction="pas" swaplevel="1" rot="R180"/>
</symbol>
<symbol name="FERRITE">
<wire x1="-2.54" y1="-0.889" x2="2.54" y2="-0.889" width="0.254" layer="94"/>
<wire x1="2.54" y1="0.889" x2="-2.54" y2="0.889" width="0.254" layer="94"/>
<wire x1="2.54" y1="-0.889" x2="2.54" y2="0.889" width="0.254" layer="94"/>
<wire x1="-2.54" y1="-0.889" x2="-2.54" y2="0.889" width="0.254" layer="94"/>
<text x="-3.81" y="1.4986" size="1.778" layer="95">&gt;NAME</text>
<text x="-3.81" y="-3.302" size="1.778" layer="96">&gt;VALUE</text>
<pin name="2" x="5.08" y="0" visible="off" length="short" direction="pas" swaplevel="1" rot="R180"/>
<pin name="1" x="-5.08" y="0" visible="off" length="short" direction="pas" swaplevel="1"/>
</symbol>
</symbols>
<devicesets>
<deviceset name="CAP_POL" prefix="C" uservalue="yes">
<gates>
<gate name="G$1" symbol="C_POL" x="0" y="0"/>
</gates>
<devices>
<device name="10UF/16V" package="C_POL_SMD_10UF/16V">
<connects>
<connect gate="G$1" pin="+" pad="+"/>
<connect gate="G$1" pin="-" pad="-"/>
</connects>
<technologies>
<technology name=""/>
</technologies>
</device>
<device name="10UF/25V" package="C_POL_SMD_10UF/25V">
<connects>
<connect gate="G$1" pin="+" pad="+"/>
<connect gate="G$1" pin="-" pad="-"/>
</connects>
<technologies>
<technology name=""/>
</technologies>
</device>
<device name="1000UF/16V" package="C_POL_SMD_1000UF/16V">
<connects>
<connect gate="G$1" pin="+" pad="+"/>
<connect gate="G$1" pin="-" pad="-"/>
</connects>
<technologies>
<technology name=""/>
</technologies>
</device>
<device name="100UF/16V" package="C_POL_SMD_100UF/16V">
<connects>
<connect gate="G$1" pin="+" pad="+"/>
<connect gate="G$1" pin="-" pad="-"/>
</connects>
<technologies>
<technology name=""/>
</technologies>
</device>
<device name="100UF/50V" package="C_POL_SMD_100UF/50V">
<connects>
<connect gate="G$1" pin="+" pad="+"/>
<connect gate="G$1" pin="-" pad="-"/>
</connects>
<technologies>
<technology name=""/>
</technologies>
</device>
<device name="1UF/50V" package="C_POL_SMD_1UF/50V">
<connects>
<connect gate="G$1" pin="+" pad="+"/>
<connect gate="G$1" pin="-" pad="-"/>
</connects>
<technologies>
<technology name=""/>
</technologies>
</device>
<device name="220UF/16V" package="C_POL_SMD_220UF/16V">
<connects>
<connect gate="G$1" pin="+" pad="+"/>
<connect gate="G$1" pin="-" pad="-"/>
</connects>
<technologies>
<technology name=""/>
</technologies>
</device>
<device name="4,7UF/50V" package="C_POL_SMD_4,7UF/50V">
<connects>
<connect gate="G$1" pin="+" pad="+"/>
<connect gate="G$1" pin="-" pad="-"/>
</connects>
<technologies>
<technology name=""/>
</technologies>
</device>
<device name="470UF/16V" package="C_POL_SMD_470UF/16V">
<connects>
<connect gate="G$1" pin="+" pad="+"/>
<connect gate="G$1" pin="-" pad="-"/>
</connects>
<technologies>
<technology name=""/>
</technologies>
</device>
<device name="470UF/25V" package="C_POL_SMD_470UF/25V">
<connects>
<connect gate="G$1" pin="+" pad="+"/>
<connect gate="G$1" pin="-" pad="-"/>
</connects>
<technologies>
<technology name=""/>
</technologies>
</device>
<device name="47UF/16V" package="C_POL_SMD_47UF/16V">
<connects>
<connect gate="G$1" pin="+" pad="+"/>
<connect gate="G$1" pin="-" pad="-"/>
</connects>
<technologies>
<technology name=""/>
</technologies>
</device>
<device name="1000UF/25V" package="C_POL_SMD_1000UF/25V">
<connects>
<connect gate="G$1" pin="+" pad="+"/>
<connect gate="G$1" pin="-" pad="-"/>
</connects>
<technologies>
<technology name=""/>
</technologies>
</device>
</devices>
</deviceset>
<deviceset name="CAP" prefix="C" uservalue="yes">
<gates>
<gate name="G$1" symbol="C_EU" x="0" y="0"/>
</gates>
<devices>
<device name="1206" package="C1206K">
<connects>
<connect gate="G$1" pin="1" pad="1"/>
<connect gate="G$1" pin="2" pad="2"/>
</connects>
<technologies>
<technology name=""/>
</technologies>
</device>
<device name="0402" package="0402_MP">
<connects>
<connect gate="G$1" pin="1" pad="1"/>
<connect gate="G$1" pin="2" pad="2"/>
</connects>
<technologies>
<technology name=""/>
</technologies>
</device>
<device name="0603" package="0603_MP">
<connects>
<connect gate="G$1" pin="1" pad="1"/>
<connect gate="G$1" pin="2" pad="2"/>
</connects>
<technologies>
<technology name=""/>
</technologies>
</device>
<device name="0805" package="0805_MP">
<connects>
<connect gate="G$1" pin="1" pad="1"/>
<connect gate="G$1" pin="2" pad="2"/>
</connects>
<technologies>
<technology name=""/>
</technologies>
</device>
</devices>
</deviceset>
<deviceset name="RESISTOR" prefix="R" uservalue="yes">
<gates>
<gate name="G$1" symbol="R_EU" x="0" y="0"/>
</gates>
<devices>
<device name="1/4W" package="0204/7">
<connects>
<connect gate="G$1" pin="1" pad="1"/>
<connect gate="G$1" pin="2" pad="2"/>
</connects>
<technologies>
<technology name=""/>
</technologies>
</device>
<device name="1206" package="R1206">
<connects>
<connect gate="G$1" pin="1" pad="1"/>
<connect gate="G$1" pin="2" pad="2"/>
</connects>
<technologies>
<technology name=""/>
</technologies>
</device>
<device name="0402" package="0402_MP">
<connects>
<connect gate="G$1" pin="1" pad="1"/>
<connect gate="G$1" pin="2" pad="2"/>
</connects>
<technologies>
<technology name=""/>
</technologies>
</device>
<device name="0603" package="0603_MP">
<connects>
<connect gate="G$1" pin="1" pad="1"/>
<connect gate="G$1" pin="2" pad="2"/>
</connects>
<technologies>
<technology name=""/>
</technologies>
</device>
<device name="0805" package="0805_MP">
<connects>
<connect gate="G$1" pin="1" pad="1"/>
<connect gate="G$1" pin="2" pad="2"/>
</connects>
<technologies>
<technology name=""/>
</technologies>
</device>
</devices>
</deviceset>
<deviceset name="RESISTOR_TRIMM" prefix="R" uservalue="yes">
<gates>
<gate name="G$1" symbol="R_TRIMM" x="0" y="0"/>
</gates>
<devices>
<device name="3296" package="RTRIM64W">
<connects>
<connect gate="G$1" pin="A" pad="1"/>
<connect gate="G$1" pin="E" pad="3"/>
<connect gate="G$1" pin="S" pad="2"/>
</connects>
<technologies>
<technology name=""/>
</technologies>
</device>
<device name="3006" package="RTRIM3006P">
<connects>
<connect gate="G$1" pin="A" pad="1"/>
<connect gate="G$1" pin="E" pad="3"/>
<connect gate="G$1" pin="S" pad="2"/>
</connects>
<technologies>
<technology name=""/>
</technologies>
</device>
<device name="3386" package="3386P">
<connects>
<connect gate="G$1" pin="A" pad="1"/>
<connect gate="G$1" pin="E" pad="3"/>
<connect gate="G$1" pin="S" pad="2"/>
</connects>
<technologies>
<technology name=""/>
</technologies>
</device>
</devices>
</deviceset>
<deviceset name="POT" prefix="R" uservalue="yes">
<gates>
<gate name="G$1" symbol="R_TRIMM" x="0" y="0"/>
</gates>
<devices>
<device name="POT_ALPHA" package="POT_ALPHA_RV16AF-20">
<connects>
<connect gate="G$1" pin="A" pad="1"/>
<connect gate="G$1" pin="E" pad="3"/>
<connect gate="G$1" pin="S" pad="2"/>
</connects>
<technologies>
<technology name=""/>
</technologies>
</device>
</devices>
</deviceset>
<deviceset name="CRYSTAL" prefix="Q" uservalue="yes">
<gates>
<gate name="G$1" symbol="CRYSTAL" x="0" y="0"/>
</gates>
<devices>
<device name="DIP" package="CRYSTAL-DIP">
<connects>
<connect gate="G$1" pin="1" pad="1"/>
<connect gate="G$1" pin="2" pad="2"/>
</connects>
<technologies>
<technology name=""/>
</technologies>
</device>
<device name="SMD" package="CRYSTAL-SMD">
<connects>
<connect gate="G$1" pin="1" pad="1"/>
<connect gate="G$1" pin="2" pad="2"/>
</connects>
<technologies>
<technology name=""/>
</technologies>
</device>
<device name="ABM7" package="CRYSTAL-SMD-ABM7">
<connects>
<connect gate="G$1" pin="1" pad="P$1"/>
<connect gate="G$1" pin="2" pad="P$2"/>
</connects>
<technologies>
<technology name=""/>
</technologies>
</device>
</devices>
</deviceset>
<deviceset name="INDUCTOR" prefix="L" uservalue="yes">
<gates>
<gate name="G$1" symbol="L_EU" x="0" y="0"/>
</gates>
<devices>
<device name="12X12MM" package="INDUCTOR_12X12MM">
<connects>
<connect gate="G$1" pin="1" pad="P$1"/>
<connect gate="G$1" pin="2" pad="P$2"/>
</connects>
<technologies>
<technology name=""/>
</technologies>
</device>
<device name="0805" package="R0805">
<connects>
<connect gate="G$1" pin="1" pad="1"/>
<connect gate="G$1" pin="2" pad="2"/>
</connects>
<technologies>
<technology name=""/>
</technologies>
</device>
<device name="6X6MM" package="INDUCTOR_6X6MM">
<connects>
<connect gate="G$1" pin="1" pad="P$1"/>
<connect gate="G$1" pin="2" pad="P$2"/>
</connects>
<technologies>
<technology name=""/>
</technologies>
</device>
</devices>
</deviceset>
<deviceset name="OSCILLATOR" prefix="U">
<gates>
<gate name="G$1" symbol="OSCILLATOR" x="0" y="0"/>
</gates>
<devices>
<device name="SMD" package="CRYSTAL-SMD-7X5">
<connects>
<connect gate="G$1" pin="EN" pad="P$1"/>
<connect gate="G$1" pin="GND" pad="P$2"/>
<connect gate="G$1" pin="OUT" pad="P$3"/>
<connect gate="G$1" pin="VCC" pad="P$4"/>
</connects>
<technologies>
<technology name=""/>
</technologies>
</device>
<device name="SMD6" package="CRYSTAL-SMD-7.5X5.2-6PIN">
<connects>
<connect gate="G$1" pin="EN" pad="1"/>
<connect gate="G$1" pin="GND" pad="2"/>
<connect gate="G$1" pin="OUT" pad="3"/>
<connect gate="G$1" pin="VCC" pad="4"/>
</connects>
<technologies>
<technology name=""/>
</technologies>
</device>
<device name="5X3" package="CRYSTAL-SMD-5X3">
<connects>
<connect gate="G$1" pin="EN" pad="1"/>
<connect gate="G$1" pin="GND" pad="2"/>
<connect gate="G$1" pin="OUT" pad="3"/>
<connect gate="G$1" pin="VCC" pad="4"/>
</connects>
<technologies>
<technology name=""/>
</technologies>
</device>
<device name="5X3-PIN1-INDICATED" package="CRYSTAL-OSC-SMD-5X3">
<connects>
<connect gate="G$1" pin="EN" pad="1"/>
<connect gate="G$1" pin="GND" pad="2"/>
<connect gate="G$1" pin="OUT" pad="3"/>
<connect gate="G$1" pin="VCC" pad="4"/>
</connects>
<technologies>
<technology name=""/>
</technologies>
</device>
</devices>
</deviceset>
<deviceset name="PTC-FUSE" prefix="PTC" uservalue="yes">
<description>&lt;b&gt;PTC (Resettable Fuse)&lt;/b&gt;
&lt;p&gt;&lt;b&gt;1206 Package&lt;/b&gt;&lt;/p&gt;
&lt;ul&gt;
&lt;li&gt;250mA PTC (16V Max, Time-to-Trip: 0.08s) - Digikey: F2110CT-ND&lt;/li&gt;
&lt;/ul&gt;
&lt;p&gt;&lt;b&gt;1210 Package&lt;/b&gt;&lt;/p&gt;
&lt;ul&gt;
&lt;li&gt;100mA PTC (30V Max, Time-to-Trip: 0.6s) - Digikey: MF-USMF010-2CT-ND&lt;/li&gt;
&lt;/ul&gt;
&lt;p&gt;&lt;b&gt;1812 Package&lt;/b&gt;&lt;/p&gt;
&lt;ul&gt;
&lt;li&gt;750mA PTC (24V Max, Time-to-Trip: 0.2s) - Digikey: MF-MSMF075/24-2CT-ND&lt;/li&gt;
&lt;/ul&gt;</description>
<gates>
<gate name="G$1" symbol="PTC" x="0" y="0"/>
</gates>
<devices>
<device name="1206" package="PTC1206">
<connects>
<connect gate="G$1" pin="1" pad="1"/>
<connect gate="G$1" pin="2" pad="2"/>
</connects>
<technologies>
<technology name=""/>
</technologies>
</device>
<device name="1812" package="PTC1812">
<connects>
<connect gate="G$1" pin="1" pad="P$1"/>
<connect gate="G$1" pin="2" pad="P$2"/>
</connects>
<technologies>
<technology name=""/>
</technologies>
</device>
<device name="2920" package="PTC2920">
<connects>
<connect gate="G$1" pin="1" pad="1"/>
<connect gate="G$1" pin="2" pad="2"/>
</connects>
<technologies>
<technology name=""/>
</technologies>
</device>
</devices>
</deviceset>
<deviceset name="FUSE" prefix="F" uservalue="yes">
<description>&lt;B&gt;FUSE&lt;/B&gt;&lt;p&gt;
5 x 20 mm</description>
<gates>
<gate name="G$1" symbol="FUSE" x="12.7" y="0"/>
</gates>
<devices>
<device name="" package="FUSE">
<connects>
<connect gate="G$1" pin="1" pad="1"/>
<connect gate="G$1" pin="2" pad="2"/>
</connects>
<technologies>
<technology name=""/>
</technologies>
</device>
</devices>
</deviceset>
<deviceset name="RESISTOR_NET" prefix="RN" uservalue="yes">
<description>&lt;b&gt;Chip Resistor Array&lt;/b&gt; 4 Single Resistor&lt;p&gt;
Source: http://www.ctscorp.com/components/Datasheets/CTSChipArrayDs.pdf</description>
<gates>
<gate name="G$1" symbol="R_RN4" x="0" y="0" swaplevel="4"/>
</gates>
<devices>
<device name="0603" package="RESISTOR_NET">
<connects>
<connect gate="G$1" pin="1" pad="1"/>
<connect gate="G$1" pin="2" pad="2"/>
<connect gate="G$1" pin="3" pad="3"/>
<connect gate="G$1" pin="4" pad="4"/>
<connect gate="G$1" pin="5" pad="5"/>
<connect gate="G$1" pin="6" pad="6"/>
<connect gate="G$1" pin="7" pad="7"/>
<connect gate="G$1" pin="8" pad="8"/>
</connects>
<technologies>
<technology name="">
<attribute name="MF" value="" constant="no"/>
<attribute name="MPN" value="" constant="no"/>
<attribute name="OC_FARNELL" value="unknown" constant="no"/>
<attribute name="OC_NEWARK" value="unknown" constant="no"/>
</technology>
</technologies>
</device>
</devices>
</deviceset>
<deviceset name="RN08" prefix="RN" uservalue="yes">
<description>&lt;b&gt;RESISTOR NETWORK&lt;/b&gt;</description>
<gates>
<gate name="1" symbol="RN08" x="5.08" y="0"/>
</gates>
<devices>
<device name="" package="RN-9">
<connects>
<connect gate="1" pin="1" pad="1"/>
<connect gate="1" pin="2" pad="2"/>
<connect gate="1" pin="3" pad="3"/>
<connect gate="1" pin="4" pad="4"/>
<connect gate="1" pin="5" pad="5"/>
<connect gate="1" pin="6" pad="6"/>
<connect gate="1" pin="7" pad="7"/>
<connect gate="1" pin="8" pad="8"/>
<connect gate="1" pin="9" pad="9"/>
</connects>
<technologies>
<technology name="">
<attribute name="MF" value="" constant="no"/>
<attribute name="MPN" value="" constant="no"/>
<attribute name="OC_FARNELL" value="unknown" constant="no"/>
<attribute name="OC_NEWARK" value="unknown" constant="no"/>
</technology>
</technologies>
</device>
</devices>
</deviceset>
<deviceset name="FERRITE" prefix="R">
<gates>
<gate name="G$1" symbol="FERRITE" x="0" y="0"/>
</gates>
<devices>
<device name="0805" package="R0805">
<connects>
<connect gate="G$1" pin="1" pad="1"/>
<connect gate="G$1" pin="2" pad="2"/>
</connects>
<technologies>
<technology name=""/>
</technologies>
</device>
</devices>
</deviceset>
</devicesets>
</library>
</drawing>
</eagle>
